{
    "package": {
      "keywords": [
        "react",
        "create-react-app",
        "protopia ecosystem",
        "ecosystem",
        "template"
      ],
      "author": "Protopia Home design department: Glazunov Gennady, Maroseev Fedor, Leykin Dmitry",
      "license": "Apache License 2.0",
      "repository": {
        "type": "git",
        "url": "git+https://gitlab.com/genagl/cra-template-pe.git"
      },
      "bugs": {
        "url": "https://gitlab.com/genagl/cra-template-pe/-/issues"
      },
      "homepage": "http://ux.protopia-home.ru/",
      "dependencies": {
        "@apollo/react-hoc": "^4.0.0",
        "@apollo/react-hooks": "^4.0.0",
        "@blueprintjs/core": "^3.18.0",
        "@blueprintjs/datetime": "^3.9.2",
        "@blueprintjs/popover2": "^0.9.0",
        "@blueprintjs/select": "^3.10.0",
        "@ckeditor/ckeditor5-adapter-ckfinder": "^31.1.0",
        "@ckeditor/ckeditor5-autoformat": "^31.1.0",
        "@ckeditor/ckeditor5-basic-styles": "^31.1.0",
        "@ckeditor/ckeditor5-block-quote": "^31.1.0",
        "@ckeditor/ckeditor5-build-classic": "^31.1.0",
        "@ckeditor/ckeditor5-ckfinder": "^31.1.0",
        "@ckeditor/ckeditor5-cloud-services": "^31.1.0",
        "@ckeditor/ckeditor5-easy-image": "^31.1.0",
        "@ckeditor/ckeditor5-editor-classic": "^31.1.0",
        "@ckeditor/ckeditor5-essentials": "^31.1.0",
        "@ckeditor/ckeditor5-font": "^31.1.0",
        "@ckeditor/ckeditor5-heading": "^31.1.0",
        "@ckeditor/ckeditor5-image": "^31.1.0",
        "@ckeditor/ckeditor5-indent": "^31.1.0",
        "@ckeditor/ckeditor5-link": "^31.1.0",
        "@ckeditor/ckeditor5-list": "^31.1.0",
        "@ckeditor/ckeditor5-media-embed": "^31.1.0",
        "@ckeditor/ckeditor5-paragraph": "^31.1.0",
        "@ckeditor/ckeditor5-paste-from-office": "^31.1.0",
        "@ckeditor/ckeditor5-react": "^3.0.3",
        "@ckeditor/ckeditor5-table": "^31.1.0",
        "@ckeditor/ckeditor5-typing": "^31.1.0",
        "@craco/craco": "^6.4.3",
        "@trendyol-js/react-carousel": "^2.0.1",
        "apollo-cache-inmemory": "^1.6.3",
        "apollo-client": "^2.6.10",
        "apollo-link": "^1.2.12",
        "apollo-link-context": "^1.0.8",
        "apollo-link-error": "^1.1.11",
        "apollo-link-http": "^1.5.15",
        "apollo-link-rest": "^0.7.3",
        "apollo-link-state": "^0.4.2",
        "apollo-upload-client": "^13.0.0",
        "axios": "^0.19.0",
        "chroma-js": "^2.0.6",
        "ckeditor4-react": "^1.0.1",
        "fs-extra": "^10.0.0",
        "graphql": "^14.4.2",
        "graphql-anywhere": "^4.1.23",
        "graphql-docs": "^0.2.0",
        "graphql-request": "^1.8.2",
        "graphql-tag": "^2.9.2",
        "graphql-tools": "^3.0.2",
        "graphql.macro": "^1.4.2",
        "i18next": "^15.0.9",
        "in_array": "^1.1.0",
        "jquery": "^3.5.1",
        "md5": "^2.2.1",
        "moment": "^2.24.0",
        "prismjs": "^1.25.0",
        "react": "^17.0.2",
        "react-apollo": "^3.1.5",
        "react-apollo-hooks": "^0.5.0",
        "react-autosuggestions": "^3.2.0",
        "react-beautiful-dnd": "^13.0.0",
        "react-circular-progressbar": "^2.0.2",
        "react-color": "^2.19.3",
        "react-day-picker": "^7.3.2",
        "react-dom": "^16.9.0",
        "react-dynamic-import": "^1.1.5",
        "react-hooks": "^1.0.1",
        "react-markdown": "^7.0.1",
        "react-moment": "^0.9.2",
        "react-onclickoutside": "^6.9.0",
        "react-owl-carousel2fix": "^0.1.4",
        "react-paginate": "^6.3.0",
        "react-pe-basic-module": "^0.1.3",
        "react-pe-basic-view": "^0.1.31",
        "react-pe-layout-app": "^0.1.6",
        "react-pe-layouts": "^1.0.9",
        "react-pe-scalars": "^0.1.59",
        "react-pe-useful": "^0.1.143",
        "react-pe-utilities": "^0.1.23",
        "react-phone-number-input": "^2.3.21",
        "react-router": "^5.0.1",
        "react-router-dom": "^5.0.1",
        "react-scripts": "3.2.0",
        "react-select": "^3.0.4",
        "react-share": "^4.4.0",
        "react-simple-code-editor": "^0.11.0",
        "react-video": "^1.5.3",
        "react-vimeo": "^2.0.0",
        "react-vk": "^5.0.2",
        "react-waypoint": "^9.0.3",
        "react-zoom-pan-pinch": "^1.6.1",
        "recompose": "^0.30.0",
        "rgb-hex": "^4.0.0",
        "social-likes": "^3.1.3",
        "source-map-explorer": "^2.5.2",
        "style-it": "^2.1.4",
        "vis-react": "^0.4.6",
        "webfontloader": "^1.6.28",
        "xml2js": "^0.4.23",
        "yandex-map-react": "^1.1.1"
      },
      "babel": {
        "plugins": [
          "@babel/plugin-proposal-class-properties"
        ],
        "presets": [
          "@babel/preset-react"
        ]
      },
      "eslintConfig": {
        "extends": [
          "react-app"
        ]
      },
      "scripts": {
        "start": "react-scripts start",
        "build": "react-scripts build",
        "test": "react-scripts test",
        "eject": "react-scripts eject",
        "install": "node scripts/install.js",
        "add-module": "node scripts/addmodule.js",
        "remove-module": "node scripts/removemodule.js"
      },
      "devDependencies": {
        "@babel/cli": "^7.16.7",
        "@babel/plugin-proposal-class-properties": "^7.16.7",
        "@babel/preset-react": "^7.16.7",
        "@ckeditor/ckeditor5-alignment": "^31.0.0",
        "@ckeditor/ckeditor5-dev-utils": "^12.0.5",
        "@ckeditor/ckeditor5-theme-lark": "^16.0.0",
        "babel-plugin-module-resolver": "^4.1.0",
        "expose-loader": "^3.1.0",
        "raw-loader": "^4.0.0"
      }
    }
  }