<?xml version="1.0" encoding="utf-8"?>
<!-- Generator: Adobe Illustrator 24.0.0, SVG Export Plug-In . SVG Version: 6.00 Build 0)  -->
<svg version="1.1" xmlns="http://www.w3.org/2000/svg" xmlns:xlink="http://www.w3.org/1999/xlink" x="0px" y="0px"
	 viewBox="0 0 200 100" style="enable-background:new 0 0 200 100;" xml:space="preserve">
<style type="text/css">
	.st0{fill:url(#SVGID_1_);stroke:#000000;stroke-width:1.1182;stroke-miterlimit:10;}
	.st1{fill:none;stroke:#000000;stroke-width:1.1527;stroke-miterlimit:10;}
	.st2{display:none;}
	.st3{display:inline;fill:url(#SVGID_2_);stroke:#000000;stroke-width:1.1177;stroke-miterlimit:10;}
	.st4{display:inline;}
	.st5{fill:#020304;}
	.st6{display:inline;fill:url(#SVGID_3_);stroke:#000000;stroke-width:1.4551;stroke-miterlimit:10;}
	.st7{fill:#FFFFFF;}
</style>
<g id="Слой_1">
	<linearGradient id="SVGID_1_" gradientUnits="userSpaceOnUse" x1="59.0106" y1="0" x2="59.0106" y2="100.0851">
		<stop  offset="1.331947e-07" style="stop-color:#66604A"/>
		<stop  offset="1" style="stop-color:#615D52"/>
	</linearGradient>
	<rect class="st0" width="118" height="100.1"/>
	<g>
		<path d="M130.4,15h-2v-1.4h5.8V15h-2.1v6.1h-1.7V15z"/>
		<path d="M136.5,14.1c0,0.5-0.3,0.9-0.9,0.9c-0.5,0-0.9-0.4-0.9-0.9c0-0.5,0.4-0.9,0.9-0.9S136.5,13.6,136.5,14.1z M134.8,21.1
			v-5.5h1.7v5.5H134.8z"/>
		<path d="M139.8,14.1v1.5h1.2v1.3h-1.2v2c0,0.7,0.2,1,0.7,1c0.2,0,0.3,0,0.5,0l0,1.3c-0.2,0.1-0.6,0.1-1.1,0.1
			c-0.5,0-1-0.2-1.3-0.5c-0.3-0.3-0.5-0.9-0.5-1.6v-2.2h-0.7v-1.3h0.7v-1L139.8,14.1z"/>
		<path d="M142,13.1h1.7v8H142V13.1z"/>
		<path d="M146.4,18.9c0,0.7,0.8,1,1.5,1c0.6,0,1.1-0.1,1.5-0.2l0.2,1.2c-0.6,0.2-1.2,0.3-2,0.3c-1.9,0-2.9-1.1-2.9-2.8
			c0-1.4,0.9-2.9,2.8-2.9c1.8,0,2.4,1.4,2.4,2.7c0,0.3,0,0.5-0.1,0.7H146.4z M148.4,17.7c0-0.4-0.2-1.1-1-1.1c-0.7,0-1,0.7-1.1,1.1
			H148.4z"/>
	</g>
	<g>
		<path d="M128.8,25.9h0.7v4.7h2.2v0.6h-2.9V25.9z"/>
		<path d="M135.7,29.2c0,1.4-1,2-1.9,2c-1,0-1.8-0.7-1.8-1.9c0-1.2,0.8-2,1.9-2C135,27.3,135.7,28,135.7,29.2z M132.8,29.2
			c0,0.8,0.5,1.4,1.1,1.4c0.7,0,1.1-0.6,1.1-1.5c0-0.6-0.3-1.4-1.1-1.4C133.1,27.8,132.8,28.5,132.8,29.2z"/>
		<path d="M136.6,28.5c0-0.4,0-0.8,0-1.2h0.6l0,0.7h0c0.2-0.5,0.6-0.8,1-0.8c0.1,0,0.1,0,0.2,0v0.6c-0.1,0-0.1,0-0.2,0
			c-0.5,0-0.8,0.4-0.9,0.9c0,0.1,0,0.2,0,0.3v2h-0.7V28.5z"/>
		<path d="M139.4,29.3c0,0.9,0.6,1.3,1.3,1.3c0.5,0,0.8-0.1,1-0.2l0.1,0.5c-0.2,0.1-0.7,0.2-1.3,0.2c-1.2,0-1.8-0.8-1.8-1.9
			s0.7-2,1.8-2c1.2,0,1.6,1.1,1.6,1.8c0,0.1,0,0.2,0,0.3H139.4z M141.4,28.8c0-0.4-0.2-1.1-0.9-1.1c-0.7,0-1,0.6-1,1.1H141.4z"/>
		<path d="M142.9,28.3c0-0.4,0-0.7,0-1h0.6l0,0.6h0c0.2-0.4,0.6-0.7,1.2-0.7c0.5,0,0.9,0.3,1.1,0.8h0c0.1-0.2,0.3-0.4,0.4-0.5
			c0.2-0.2,0.5-0.3,0.8-0.3c0.5,0,1.2,0.3,1.2,1.6v2.2h-0.7V29c0-0.7-0.3-1.2-0.8-1.2c-0.4,0-0.7,0.3-0.8,0.6c0,0.1-0.1,0.2-0.1,0.3
			v2.3h-0.7v-2.2c0-0.6-0.3-1-0.8-1c-0.4,0-0.7,0.3-0.8,0.7c0,0.1-0.1,0.2-0.1,0.3v2.3h-0.7V28.3z"/>
		<path d="M151.8,26.3c0,0.2-0.2,0.4-0.4,0.4c-0.2,0-0.4-0.2-0.4-0.4c0-0.2,0.2-0.4,0.4-0.4C151.6,25.9,151.8,26,151.8,26.3z
			 M151.1,31.1v-3.8h0.7v3.8H151.1z"/>
		<path d="M152.9,28.6c0-0.5,0-0.9,0-1.2h0.6l0,0.6h0c0.3-0.5,0.7-0.7,1.3-0.7c0.9,0,1.6,0.8,1.6,1.9c0,1.3-0.8,2-1.7,2
			c-0.5,0-0.9-0.2-1.2-0.6h0v2h-0.7V28.6z M153.5,29.6c0,0.1,0,0.2,0,0.3c0.1,0.5,0.5,0.8,1,0.8c0.7,0,1.1-0.6,1.1-1.4
			c0-0.7-0.4-1.4-1.1-1.4c-0.5,0-0.9,0.3-1,0.8c0,0.1,0,0.2,0,0.3V29.6z"/>
		<path d="M157.2,30.4c0.2,0.1,0.6,0.3,0.9,0.3c0.5,0,0.7-0.2,0.7-0.6c0-0.3-0.2-0.5-0.7-0.7c-0.7-0.2-1-0.6-1-1.1
			c0-0.6,0.5-1.1,1.3-1.1c0.4,0,0.7,0.1,0.9,0.2l-0.2,0.5c-0.1-0.1-0.4-0.2-0.8-0.2c-0.4,0-0.6,0.2-0.6,0.5c0,0.3,0.2,0.4,0.7,0.6
			c0.6,0.2,1,0.6,1,1.1c0,0.7-0.5,1.1-1.4,1.1c-0.4,0-0.8-0.1-1.1-0.3L157.2,30.4z"/>
		<path d="M163.5,30.1c0,0.4,0,0.7,0,1h-0.6l0-0.6h0c-0.2,0.3-0.6,0.7-1.2,0.7c-0.6,0-1.3-0.3-1.3-1.6v-2.2h0.7v2.1
			c0,0.7,0.2,1.2,0.8,1.2c0.5,0,0.8-0.3,0.9-0.6c0-0.1,0.1-0.2,0.1-0.3v-2.3h0.7V30.1z"/>
		<path d="M164.6,28.3c0-0.4,0-0.7,0-1h0.6l0,0.6h0c0.2-0.4,0.6-0.7,1.2-0.7c0.5,0,0.9,0.3,1.1,0.8h0c0.1-0.2,0.3-0.4,0.4-0.5
			c0.2-0.2,0.5-0.3,0.8-0.3c0.5,0,1.2,0.3,1.2,1.6v2.2h-0.7V29c0-0.7-0.3-1.2-0.8-1.2c-0.4,0-0.7,0.3-0.8,0.6c0,0.1-0.1,0.2-0.1,0.3
			v2.3H167v-2.2c0-0.6-0.3-1-0.8-1c-0.4,0-0.7,0.3-0.8,0.7c0,0.1-0.1,0.2-0.1,0.3v2.3h-0.7V28.3z"/>
		<path d="M176,25.6v4.5c0,0.3,0,0.7,0,1h-0.6l0-0.7h0c-0.2,0.4-0.7,0.7-1.3,0.7c-0.9,0-1.6-0.8-1.6-1.9c0-1.2,0.8-2,1.7-2
			c0.6,0,1,0.3,1.1,0.6h0v-2.2H176z M175.3,28.9c0-0.1,0-0.2,0-0.3c-0.1-0.4-0.5-0.8-1-0.8c-0.7,0-1.1,0.6-1.1,1.4
			c0,0.8,0.4,1.4,1.1,1.4c0.5,0,0.9-0.3,1-0.8c0-0.1,0-0.2,0-0.3V28.9z"/>
		<path d="M180.5,29.2c0,1.4-1,2-1.9,2c-1,0-1.8-0.7-1.8-1.9c0-1.2,0.8-2,1.9-2C179.8,27.3,180.5,28,180.5,29.2z M177.5,29.2
			c0,0.8,0.5,1.4,1.1,1.4c0.7,0,1.1-0.6,1.1-1.5c0-0.6-0.3-1.4-1.1-1.4C177.9,27.8,177.5,28.5,177.5,29.2z"/>
		<path d="M181.4,25.6h0.7v5.5h-0.7V25.6z"/>
		<path d="M186.6,29.2c0,1.4-1,2-1.9,2c-1,0-1.8-0.7-1.8-1.9c0-1.2,0.8-2,1.9-2C185.9,27.3,186.6,28,186.6,29.2z M183.6,29.2
			c0,0.8,0.5,1.4,1.1,1.4c0.7,0,1.1-0.6,1.1-1.5c0-0.6-0.3-1.4-1.1-1.4C184,27.8,183.6,28.5,183.6,29.2z"/>
		<path d="M187.5,28.5c0-0.4,0-0.8,0-1.2h0.6l0,0.7h0c0.2-0.5,0.6-0.8,1-0.8c0.1,0,0.1,0,0.2,0v0.6c-0.1,0-0.1,0-0.2,0
			c-0.5,0-0.8,0.4-0.9,0.9c0,0.1,0,0.2,0,0.3v2h-0.7V28.5z"/>
		<path d="M128.7,39.7c0.2,0.1,0.6,0.3,0.9,0.3c0.5,0,0.7-0.2,0.7-0.6c0-0.3-0.2-0.5-0.7-0.7c-0.7-0.2-1-0.6-1-1.1
			c0-0.6,0.5-1.1,1.3-1.1c0.4,0,0.7,0.1,0.9,0.2l-0.2,0.5c-0.1-0.1-0.4-0.2-0.8-0.2c-0.4,0-0.6,0.2-0.6,0.5c0,0.3,0.2,0.4,0.7,0.6
			c0.6,0.2,1,0.6,1,1.1c0,0.7-0.5,1.1-1.4,1.1c-0.4,0-0.8-0.1-1.1-0.3L128.7,39.7z"/>
		<path d="M132.6,35.6c0,0.2-0.2,0.4-0.4,0.4c-0.2,0-0.4-0.2-0.4-0.4c0-0.2,0.2-0.4,0.4-0.4C132.4,35.2,132.6,35.3,132.6,35.6z
			 M131.9,40.4v-3.8h0.7v3.8H131.9z"/>
		<path d="M134.5,35.7v0.9h1v0.5h-1v2c0,0.5,0.1,0.7,0.5,0.7c0.2,0,0.3,0,0.4,0l0,0.5c-0.1,0-0.3,0.1-0.6,0.1
			c-0.3,0-0.6-0.1-0.7-0.3c-0.2-0.2-0.3-0.5-0.3-1v-2h-0.6v-0.5h0.6v-0.7L134.5,35.7z"/>
		<path d="M140.5,39.5c0,0.3,0,0.6,0.1,0.9H140l-0.1-0.5h0c-0.2,0.3-0.6,0.6-1.1,0.6c-0.8,0-1.1-0.5-1.1-1.1c0-0.9,0.8-1.4,2.3-1.4
			v-0.1c0-0.3-0.1-0.9-0.9-0.9c-0.4,0-0.7,0.1-1,0.3l-0.2-0.5c0.3-0.2,0.8-0.3,1.2-0.3c1.1,0,1.4,0.8,1.4,1.5V39.5z M139.9,38.5
			c-0.7,0-1.6,0.1-1.6,0.8c0,0.4,0.3,0.7,0.6,0.7c0.5,0,0.8-0.3,0.9-0.6c0-0.1,0-0.2,0-0.2V38.5z"/>
		<path d="M141.6,37.7c0-0.4,0-0.7,0-1h0.6l0,0.6h0c0.2-0.4,0.6-0.7,1.2-0.7c0.5,0,0.9,0.3,1.1,0.8h0c0.1-0.2,0.3-0.4,0.4-0.5
			c0.2-0.2,0.5-0.3,0.8-0.3c0.5,0,1.2,0.3,1.2,1.6v2.2h-0.7v-2.1c0-0.7-0.3-1.2-0.8-1.2c-0.4,0-0.7,0.3-0.8,0.6
			c0,0.1-0.1,0.2-0.1,0.3v2.3H144v-2.2c0-0.6-0.3-1-0.8-1c-0.4,0-0.7,0.3-0.8,0.7c0,0.1-0.1,0.2-0.1,0.3v2.3h-0.7V37.7z"/>
		<path d="M148.5,38.6c0,0.9,0.6,1.3,1.3,1.3c0.5,0,0.8-0.1,1-0.2l0.1,0.5c-0.2,0.1-0.7,0.2-1.3,0.2c-1.2,0-1.8-0.8-1.8-1.9
			s0.7-2,1.8-2c1.2,0,1.6,1.1,1.6,1.8c0,0.1,0,0.2,0,0.3H148.5z M150.5,38.1c0-0.4-0.2-1.1-0.9-1.1c-0.7,0-1,0.6-1,1.1H150.5z"/>
		<path d="M152.8,35.7v0.9h1v0.5h-1v2c0,0.5,0.1,0.7,0.5,0.7c0.2,0,0.3,0,0.4,0l0,0.5c-0.1,0-0.3,0.1-0.6,0.1
			c-0.3,0-0.6-0.1-0.7-0.3c-0.2-0.2-0.3-0.5-0.3-1v-2h-0.6v-0.5h0.6v-0.7L152.8,35.7z"/>
		<path d="M154.1,41.4c0.2-0.5,0.4-1.3,0.5-1.9l0.8-0.1c-0.2,0.7-0.5,1.5-0.7,1.9L154.1,41.4z"/>
		<path d="M160.4,40.3c-0.2,0.1-0.6,0.2-1.1,0.2c-1.1,0-1.9-0.8-1.9-1.9c0-1.2,0.8-2,2-2c0.4,0,0.8,0.1,0.9,0.2l-0.2,0.5
			c-0.2-0.1-0.4-0.2-0.8-0.2c-0.9,0-1.3,0.6-1.3,1.4c0,0.9,0.6,1.4,1.3,1.4c0.4,0,0.6-0.1,0.8-0.2L160.4,40.3z"/>
		<path d="M164.6,38.5c0,1.4-1,2-1.9,2c-1,0-1.8-0.7-1.8-1.9c0-1.2,0.8-2,1.9-2C163.9,36.6,164.6,37.3,164.6,38.5z M161.6,38.5
			c0,0.8,0.5,1.4,1.1,1.4c0.7,0,1.1-0.6,1.1-1.5c0-0.6-0.3-1.4-1.1-1.4C162,37.1,161.6,37.8,161.6,38.5z"/>
		<path d="M165.5,37.7c0-0.4,0-0.7,0-1h0.6l0,0.6h0c0.2-0.3,0.6-0.7,1.2-0.7c0.5,0,1.3,0.3,1.3,1.6v2.2H168v-2.2
			c0-0.6-0.2-1.1-0.9-1.1c-0.4,0-0.8,0.3-0.9,0.7c0,0.1,0,0.2,0,0.3v2.3h-0.7V37.7z"/>
		<path d="M169.7,39.7c0.2,0.1,0.6,0.3,0.9,0.3c0.5,0,0.7-0.2,0.7-0.6c0-0.3-0.2-0.5-0.7-0.7c-0.7-0.2-1-0.6-1-1.1
			c0-0.6,0.5-1.1,1.3-1.1c0.4,0,0.7,0.1,0.9,0.2l-0.2,0.5c-0.1-0.1-0.4-0.2-0.8-0.2c-0.4,0-0.6,0.2-0.6,0.5c0,0.3,0.2,0.4,0.7,0.6
			c0.6,0.2,1,0.6,1,1.1c0,0.7-0.5,1.1-1.4,1.1c-0.4,0-0.8-0.1-1.1-0.3L169.7,39.7z"/>
		<path d="M173.2,38.6c0,0.9,0.6,1.3,1.3,1.3c0.5,0,0.8-0.1,1-0.2l0.1,0.5c-0.2,0.1-0.7,0.2-1.3,0.2c-1.2,0-1.8-0.8-1.8-1.9
			s0.7-2,1.8-2c1.2,0,1.6,1.1,1.6,1.8c0,0.1,0,0.2,0,0.3H173.2z M175.2,38.1c0-0.4-0.2-1.1-0.9-1.1c-0.7,0-1,0.6-1,1.1H175.2z"/>
		<path d="M179.4,40.3c-0.2,0.1-0.6,0.2-1.1,0.2c-1.1,0-1.9-0.8-1.9-1.9c0-1.2,0.8-2,2-2c0.4,0,0.8,0.1,0.9,0.2l-0.2,0.5
			c-0.2-0.1-0.4-0.2-0.8-0.2c-0.9,0-1.3,0.6-1.3,1.4c0,0.9,0.6,1.4,1.3,1.4c0.4,0,0.6-0.1,0.8-0.2L179.4,40.3z"/>
		<path d="M181.1,35.7v0.9h1v0.5h-1v2c0,0.5,0.1,0.7,0.5,0.7c0.2,0,0.3,0,0.4,0l0,0.5c-0.1,0-0.3,0.1-0.6,0.1
			c-0.3,0-0.6-0.1-0.7-0.3c-0.2-0.2-0.3-0.5-0.3-1v-2h-0.6v-0.5h0.6v-0.7L181.1,35.7z"/>
		<path d="M183.2,38.6c0,0.9,0.6,1.3,1.3,1.3c0.5,0,0.8-0.1,1-0.2l0.1,0.5c-0.2,0.1-0.7,0.2-1.3,0.2c-1.2,0-1.8-0.8-1.8-1.9
			s0.7-2,1.8-2c1.2,0,1.6,1.1,1.6,1.8c0,0.1,0,0.2,0,0.3H183.2z M185.2,38.1c0-0.4-0.2-1.1-0.9-1.1c-0.7,0-1,0.6-1,1.1H185.2z"/>
		<path d="M187.5,35.7v0.9h1v0.5h-1v2c0,0.5,0.1,0.7,0.5,0.7c0.2,0,0.3,0,0.4,0l0,0.5c-0.1,0-0.3,0.1-0.6,0.1
			c-0.3,0-0.6-0.1-0.7-0.3c-0.2-0.2-0.3-0.5-0.3-1v-2h-0.6v-0.5h0.6v-0.7L187.5,35.7z"/>
		<path d="M192.4,39.4c0,0.4,0,0.7,0,1h-0.6l0-0.6h0c-0.2,0.3-0.6,0.7-1.2,0.7c-0.6,0-1.3-0.3-1.3-1.6v-2.2h0.7v2.1
			c0,0.7,0.2,1.2,0.8,1.2c0.5,0,0.8-0.3,0.9-0.6c0-0.1,0.1-0.2,0.1-0.3v-2.3h0.7V39.4z"/>
		<path d="M129.2,47.9c0,0.9,0.6,1.3,1.3,1.3c0.5,0,0.8-0.1,1-0.2l0.1,0.5c-0.2,0.1-0.7,0.2-1.3,0.2c-1.2,0-1.8-0.8-1.8-1.9
			s0.7-2,1.8-2c1.2,0,1.6,1.1,1.6,1.8c0,0.1,0,0.2,0,0.3H129.2z M131.2,47.5c0-0.4-0.2-1.1-0.9-1.1c-0.7,0-1,0.6-1,1.1H131.2z"/>
		<path d="M132.7,47.1c0-0.4,0-0.8,0-1.2h0.6l0,0.7h0c0.2-0.5,0.6-0.8,1-0.8c0.1,0,0.1,0,0.2,0v0.6c-0.1,0-0.1,0-0.2,0
			c-0.5,0-0.8,0.4-0.9,0.9c0,0.1,0,0.2,0,0.3v2h-0.7V47.1z"/>
		<path d="M137.8,48.8c0,0.3,0,0.6,0.1,0.9h-0.6l-0.1-0.5h0c-0.2,0.3-0.6,0.6-1.1,0.6c-0.8,0-1.1-0.5-1.1-1.1c0-0.9,0.8-1.4,2.3-1.4
			v-0.1c0-0.3-0.1-0.9-0.9-0.9c-0.4,0-0.7,0.1-1,0.3l-0.2-0.5c0.3-0.2,0.8-0.3,1.2-0.3c1.1,0,1.4,0.8,1.4,1.5V48.8z M137.1,47.8
			c-0.7,0-1.6,0.1-1.6,0.8c0,0.4,0.3,0.7,0.6,0.7c0.5,0,0.8-0.3,0.9-0.6c0-0.1,0-0.2,0-0.2V47.8z"/>
		<path d="M142.1,44.2v4.5c0,0.3,0,0.7,0,1h-0.6l0-0.7h0c-0.2,0.4-0.7,0.7-1.3,0.7c-0.9,0-1.6-0.8-1.6-1.9c0-1.2,0.8-2,1.7-2
			c0.6,0,1,0.3,1.1,0.6h0v-2.2H142.1z M141.5,47.5c0-0.1,0-0.2,0-0.3c-0.1-0.4-0.5-0.8-1-0.8c-0.7,0-1.1,0.6-1.1,1.4
			c0,0.8,0.4,1.4,1.1,1.4c0.5,0,0.9-0.3,1-0.8c0-0.1,0-0.2,0-0.3V47.5z"/>
		<path d="M144,44.9c0,0.2-0.2,0.4-0.4,0.4c-0.2,0-0.4-0.2-0.4-0.4c0-0.2,0.2-0.4,0.4-0.4C143.9,44.5,144,44.6,144,44.9z
			 M143.3,49.7v-3.8h0.7v3.8H143.3z"/>
		<path d="M145.1,47.2c0-0.5,0-0.9,0-1.2h0.6l0,0.6h0c0.3-0.5,0.7-0.7,1.3-0.7c0.9,0,1.6,0.8,1.6,1.9c0,1.3-0.8,2-1.7,2
			c-0.5,0-0.9-0.2-1.2-0.6h0v2h-0.7V47.2z M145.8,48.2c0,0.1,0,0.2,0,0.3c0.1,0.5,0.5,0.8,1,0.8c0.7,0,1.1-0.6,1.1-1.4
			c0-0.7-0.4-1.4-1.1-1.4c-0.5,0-0.9,0.3-1,0.8c0,0.1,0,0.2,0,0.3V48.2z"/>
		<path d="M150.3,44.9c0,0.2-0.2,0.4-0.4,0.4c-0.2,0-0.4-0.2-0.4-0.4c0-0.2,0.2-0.4,0.4-0.4C150.1,44.5,150.3,44.6,150.3,44.9z
			 M149.5,49.7v-3.8h0.7v3.8H149.5z"/>
		<path d="M151.2,49c0.2,0.1,0.6,0.3,0.9,0.3c0.5,0,0.7-0.2,0.7-0.6c0-0.3-0.2-0.5-0.7-0.7c-0.7-0.2-1-0.6-1-1.1
			c0-0.6,0.5-1.1,1.3-1.1c0.4,0,0.7,0.1,0.9,0.2l-0.2,0.5c-0.1-0.1-0.4-0.2-0.8-0.2c-0.4,0-0.6,0.2-0.6,0.5c0,0.3,0.2,0.4,0.7,0.6
			c0.6,0.2,1,0.6,1,1.1c0,0.7-0.5,1.1-1.4,1.1c-0.4,0-0.8-0.1-1.1-0.3L151.2,49z"/>
		<path d="M157.1,49.6c-0.2,0.1-0.6,0.2-1.1,0.2c-1.1,0-1.9-0.8-1.9-1.9c0-1.2,0.8-2,2-2c0.4,0,0.8,0.1,0.9,0.2l-0.2,0.5
			c-0.2-0.1-0.4-0.2-0.8-0.2c-0.9,0-1.3,0.6-1.3,1.4c0,0.9,0.6,1.4,1.3,1.4c0.4,0,0.6-0.1,0.8-0.2L157.1,49.6z"/>
		<path d="M158.6,44.9c0,0.2-0.2,0.4-0.4,0.4c-0.2,0-0.4-0.2-0.4-0.4c0-0.2,0.2-0.4,0.4-0.4C158.5,44.5,158.6,44.6,158.6,44.9z
			 M157.9,49.7v-3.8h0.7v3.8H157.9z"/>
		<path d="M159.7,47c0-0.4,0-0.7,0-1h0.6l0,0.6h0c0.2-0.3,0.6-0.7,1.2-0.7c0.5,0,1.3,0.3,1.3,1.6v2.2h-0.7v-2.2
			c0-0.6-0.2-1.1-0.9-1.1c-0.4,0-0.8,0.3-0.9,0.7c0,0.1,0,0.2,0,0.3v2.3h-0.7V47z"/>
		<path d="M167.2,49.1c0,0.9-0.2,1.4-0.5,1.7c-0.4,0.3-0.9,0.4-1.4,0.4c-0.4,0-0.9-0.1-1.2-0.3l0.2-0.5c0.2,0.2,0.6,0.3,1.1,0.3
			c0.7,0,1.2-0.4,1.2-1.3v-0.4h0c-0.2,0.3-0.6,0.6-1.2,0.6c-0.9,0-1.6-0.8-1.6-1.8c0-1.3,0.8-2,1.7-2c0.7,0,1,0.3,1.2,0.6h0l0-0.6
			h0.6c0,0.3,0,0.6,0,1V49.1z M166.5,47.4c0-0.1,0-0.2,0-0.3c-0.1-0.4-0.4-0.7-1-0.7c-0.7,0-1.1,0.6-1.1,1.4c0,0.7,0.4,1.3,1.1,1.3
			c0.4,0,0.8-0.3,0.9-0.7c0-0.1,0.1-0.2,0.1-0.4V47.4z"/>
		<path d="M170.3,47.9c0,0.9,0.6,1.3,1.3,1.3c0.5,0,0.8-0.1,1-0.2l0.1,0.5c-0.2,0.1-0.7,0.2-1.3,0.2c-1.2,0-1.8-0.8-1.8-1.9
			s0.7-2,1.8-2c1.2,0,1.6,1.1,1.6,1.8c0,0.1,0,0.2,0,0.3H170.3z M172.3,47.5c0-0.4-0.2-1.1-0.9-1.1c-0.7,0-1,0.6-1,1.1H172.3z"/>
		<path d="M173.8,44.2h0.7v5.5h-0.7V44.2z"/>
		<path d="M176.4,44.9c0,0.2-0.2,0.4-0.4,0.4c-0.2,0-0.4-0.2-0.4-0.4c0-0.2,0.2-0.4,0.4-0.4C176.3,44.5,176.4,44.6,176.4,44.9z
			 M175.7,49.7v-3.8h0.7v3.8H175.7z"/>
		<path d="M178.3,45v0.9h1v0.5h-1v2c0,0.5,0.1,0.7,0.5,0.7c0.2,0,0.3,0,0.4,0l0,0.5c-0.1,0-0.3,0.1-0.6,0.1c-0.3,0-0.6-0.1-0.7-0.3
			c-0.2-0.2-0.3-0.5-0.3-1v-2h-0.6v-0.5h0.6v-0.7L178.3,45z"/>
		<path d="M179.9,49.3c0-0.3,0.2-0.5,0.5-0.5s0.5,0.2,0.5,0.5c0,0.3-0.2,0.5-0.5,0.5C180.1,49.8,179.9,49.6,179.9,49.3z"/>
		<path d="M187,49.5c-0.2,0.1-0.7,0.2-1.4,0.2c-1.5,0-2.6-0.9-2.6-2.7c0-1.6,1.1-2.7,2.7-2.7c0.6,0,1.1,0.1,1.2,0.2l-0.2,0.6
			c-0.2-0.1-0.6-0.2-1-0.2c-1.2,0-2,0.8-2,2.2c0,1.3,0.7,2.1,2,2.1c0.4,0,0.8-0.1,1.1-0.2L187,49.5z"/>
		<path d="M187.8,47.1c0-0.4,0-0.8,0-1.2h0.6l0,0.7h0c0.2-0.5,0.6-0.8,1-0.8c0.1,0,0.1,0,0.2,0v0.6c-0.1,0-0.1,0-0.2,0
			c-0.5,0-0.8,0.4-0.9,0.9c0,0.1,0,0.2,0,0.3v2h-0.7V47.1z"/>
		<path d="M192.9,48.8c0,0.3,0,0.6,0.1,0.9h-0.6l-0.1-0.5h0c-0.2,0.3-0.6,0.6-1.1,0.6c-0.8,0-1.1-0.5-1.1-1.1c0-0.9,0.8-1.4,2.3-1.4
			v-0.1c0-0.3-0.1-0.9-0.9-0.9c-0.4,0-0.7,0.1-1,0.3l-0.2-0.5c0.3-0.2,0.8-0.3,1.2-0.3c1.1,0,1.4,0.8,1.4,1.5V48.8z M192.2,47.8
			c-0.7,0-1.6,0.1-1.6,0.8c0,0.4,0.3,0.7,0.6,0.7c0.5,0,0.8-0.3,0.9-0.6c0-0.1,0-0.2,0-0.2V47.8z"/>
		<path d="M128.7,58.3c0.2,0.1,0.6,0.3,0.9,0.3c0.5,0,0.7-0.2,0.7-0.6c0-0.3-0.2-0.5-0.7-0.7c-0.7-0.2-1-0.6-1-1.1
			c0-0.6,0.5-1.1,1.3-1.1c0.4,0,0.7,0.1,0.9,0.2l-0.2,0.5c-0.1-0.1-0.4-0.2-0.8-0.2c-0.4,0-0.6,0.2-0.6,0.5c0,0.3,0.2,0.4,0.7,0.6
			c0.6,0.2,1,0.6,1,1.1c0,0.7-0.5,1.1-1.4,1.1c-0.4,0-0.8-0.1-1.1-0.3L128.7,58.3z"/>
		<path d="M132.2,57.3c0,0.9,0.6,1.3,1.3,1.3c0.5,0,0.8-0.1,1-0.2l0.1,0.5c-0.2,0.1-0.7,0.2-1.3,0.2c-1.2,0-1.8-0.8-1.8-1.9
			s0.7-2,1.8-2c1.2,0,1.6,1.1,1.6,1.8c0,0.1,0,0.2,0,0.3H132.2z M134.2,56.8c0-0.4-0.2-1.1-0.9-1.1c-0.7,0-1,0.6-1,1.1H134.2z"/>
		<path d="M136.6,54.4v0.9h1v0.5h-1v2c0,0.5,0.1,0.7,0.5,0.7c0.2,0,0.3,0,0.4,0l0,0.5c-0.1,0-0.3,0.1-0.6,0.1
			c-0.3,0-0.6-0.1-0.7-0.3c-0.2-0.2-0.3-0.5-0.3-1v-2h-0.6v-0.5h0.6v-0.7L136.6,54.4z"/>
		<path d="M140.7,54.2c0,0.2-0.2,0.4-0.4,0.4c-0.2,0-0.4-0.2-0.4-0.4s0.2-0.4,0.4-0.4C140.5,53.8,140.7,54,140.7,54.2z M140,59v-3.8
			h0.7V59H140z"/>
		<path d="M141.8,56.5c0-0.5,0-0.9,0-1.2h0.6l0,0.6h0c0.3-0.5,0.7-0.7,1.3-0.7c0.9,0,1.6,0.8,1.6,1.9c0,1.3-0.8,2-1.7,2
			c-0.5,0-0.9-0.2-1.2-0.6h0v2h-0.7V56.5z M142.4,57.5c0,0.1,0,0.2,0,0.3c0.1,0.5,0.5,0.8,1,0.8c0.7,0,1.1-0.6,1.1-1.5
			c0-0.7-0.4-1.4-1.1-1.4c-0.5,0-0.9,0.3-1,0.8c0,0.1,0,0.2,0,0.3V57.5z"/>
		<path d="M146.1,58.3c0.2,0.1,0.6,0.3,0.9,0.3c0.5,0,0.7-0.2,0.7-0.6c0-0.3-0.2-0.5-0.7-0.7c-0.7-0.2-1-0.6-1-1.1
			c0-0.6,0.5-1.1,1.3-1.1c0.4,0,0.7,0.1,0.9,0.2l-0.2,0.5c-0.1-0.1-0.4-0.2-0.8-0.2c-0.4,0-0.6,0.2-0.6,0.5c0,0.3,0.2,0.4,0.7,0.6
			c0.6,0.2,1,0.6,1,1.1c0,0.7-0.5,1.1-1.4,1.1c-0.4,0-0.8-0.1-1.1-0.3L146.1,58.3z"/>
		<path d="M152.4,58c0,0.4,0,0.7,0,1h-0.6l0-0.6h0c-0.2,0.3-0.6,0.7-1.2,0.7c-0.6,0-1.3-0.3-1.3-1.6v-2.2h0.7v2.1
			c0,0.7,0.2,1.2,0.8,1.2c0.5,0,0.8-0.3,0.9-0.6c0-0.1,0.1-0.2,0.1-0.3v-2.3h0.7V58z"/>
		<path d="M153.5,56.3c0-0.4,0-0.7,0-1h0.6l0,0.6h0c0.2-0.4,0.6-0.7,1.2-0.7c0.5,0,0.9,0.3,1.1,0.8h0c0.1-0.2,0.3-0.4,0.4-0.5
			c0.2-0.2,0.5-0.3,0.8-0.3c0.5,0,1.2,0.3,1.2,1.6V59h-0.7v-2.1c0-0.7-0.3-1.2-0.8-1.2c-0.4,0-0.7,0.3-0.8,0.6
			c0,0.1-0.1,0.2-0.1,0.3V59h-0.7v-2.2c0-0.6-0.3-1-0.8-1c-0.4,0-0.7,0.3-0.8,0.7c0,0.1-0.1,0.2-0.1,0.3V59h-0.7V56.3z"/>
		<path d="M164.2,58.4L164.2,58.4c-0.2,0.4-0.6,0.7-1.2,0.7c-0.9,0-1.6-0.8-1.6-1.9c0-1.4,0.9-2,1.7-2c0.6,0,1,0.3,1.2,0.6h0l0-0.6
			h0.6c0,0.3,0,0.6,0,1v4.3h-0.7V58.4z M164.2,56.8c0-0.1,0-0.2,0-0.3c-0.1-0.4-0.5-0.8-1-0.8c-0.7,0-1.1,0.6-1.1,1.4
			c0,0.8,0.4,1.4,1.1,1.4c0.4,0,0.8-0.3,1-0.7c0-0.1,0.1-0.2,0.1-0.3V56.8z"/>
		<path d="M169.1,58c0,0.4,0,0.7,0,1h-0.6l0-0.6h0c-0.2,0.3-0.6,0.7-1.2,0.7c-0.6,0-1.3-0.3-1.3-1.6v-2.2h0.7v2.1
			c0,0.7,0.2,1.2,0.8,1.2c0.5,0,0.8-0.3,0.9-0.6c0-0.1,0.1-0.2,0.1-0.3v-2.3h0.7V58z"/>
		<path d="M171,54.2c0,0.2-0.2,0.4-0.4,0.4c-0.2,0-0.4-0.2-0.4-0.4s0.2-0.4,0.4-0.4C170.9,53.8,171,54,171,54.2z M170.3,59v-3.8h0.7
			V59H170.3z"/>
		<path d="M172,58.3c0.2,0.1,0.6,0.3,0.9,0.3c0.5,0,0.7-0.2,0.7-0.6c0-0.3-0.2-0.5-0.7-0.7c-0.7-0.2-1-0.6-1-1.1
			c0-0.6,0.5-1.1,1.3-1.1c0.4,0,0.7,0.1,0.9,0.2l-0.2,0.5c-0.1-0.1-0.4-0.2-0.8-0.2c-0.4,0-0.6,0.2-0.6,0.5c0,0.3,0.2,0.4,0.7,0.6
			c0.6,0.2,1,0.6,1,1.1c0,0.7-0.5,1.1-1.4,1.1c-0.4,0-0.8-0.1-1.1-0.3L172,58.3z"/>
		<path d="M176.8,56.3c0-0.4,0-0.7,0-1h0.6l0,0.6h0c0.2-0.4,0.6-0.7,1.2-0.7c0.5,0,0.9,0.3,1.1,0.8h0c0.1-0.2,0.3-0.4,0.4-0.5
			c0.2-0.2,0.5-0.3,0.8-0.3c0.5,0,1.2,0.3,1.2,1.6V59h-0.7v-2.1c0-0.7-0.3-1.2-0.8-1.2c-0.4,0-0.7,0.3-0.8,0.6
			c0,0.1-0.1,0.2-0.1,0.3V59h-0.7v-2.2c0-0.6-0.3-1-0.8-1c-0.4,0-0.7,0.3-0.8,0.7c0,0.1-0.1,0.2-0.1,0.3V59h-0.7V56.3z"/>
		<path d="M184,54.2c0,0.2-0.2,0.4-0.4,0.4c-0.2,0-0.4-0.2-0.4-0.4s0.2-0.4,0.4-0.4C183.9,53.8,184,54,184,54.2z M183.3,59v-3.8h0.7
			V59H183.3z"/>
		<path d="M128.7,67.6c0.2,0.1,0.6,0.3,0.9,0.3c0.5,0,0.7-0.2,0.7-0.6c0-0.3-0.2-0.5-0.7-0.7c-0.7-0.2-1-0.6-1-1.1
			c0-0.6,0.5-1.1,1.3-1.1c0.4,0,0.7,0.1,0.9,0.2l-0.2,0.5c-0.1-0.1-0.4-0.2-0.8-0.2c-0.4,0-0.6,0.2-0.6,0.5c0,0.3,0.2,0.4,0.7,0.6
			c0.6,0.2,1,0.6,1,1.1c0,0.7-0.5,1.1-1.4,1.1c-0.4,0-0.8-0.1-1.1-0.3L128.7,67.6z"/>
		<path d="M132.2,66.6c0,0.9,0.6,1.3,1.3,1.3c0.5,0,0.8-0.1,1-0.2l0.1,0.5c-0.2,0.1-0.7,0.2-1.3,0.2c-1.2,0-1.8-0.8-1.8-1.9
			c0-1.1,0.7-2,1.8-2c1.2,0,1.6,1.1,1.6,1.8c0,0.1,0,0.2,0,0.3H132.2z M134.2,66.1c0-0.4-0.2-1.1-0.9-1.1c-0.7,0-1,0.6-1,1.1H134.2z
			"/>
		<path d="M135.7,65.6c0-0.4,0-0.7,0-1h0.6l0,0.6h0c0.2-0.4,0.6-0.7,1.2-0.7c0.5,0,0.9,0.3,1.1,0.8h0c0.1-0.2,0.3-0.4,0.4-0.5
			c0.2-0.2,0.5-0.3,0.8-0.3c0.5,0,1.2,0.3,1.2,1.6v2.2h-0.7v-2.1c0-0.7-0.3-1.2-0.8-1.2c-0.4,0-0.7,0.3-0.8,0.6
			c0,0.1-0.1,0.2-0.1,0.3v2.3h-0.7v-2.2c0-0.6-0.3-1-0.8-1c-0.4,0-0.7,0.3-0.8,0.7c0,0.1-0.1,0.2-0.1,0.3v2.3h-0.7V65.6z"/>
		<path d="M142.2,65.8c0-0.5,0-0.9,0-1.2h0.6l0,0.6h0c0.3-0.5,0.7-0.7,1.3-0.7c0.9,0,1.6,0.8,1.6,1.9c0,1.3-0.8,2-1.7,2
			c-0.5,0-0.9-0.2-1.2-0.6h0v2h-0.7V65.8z M142.9,66.8c0,0.1,0,0.2,0,0.3c0.1,0.5,0.5,0.8,1,0.8c0.7,0,1.1-0.6,1.1-1.5
			c0-0.7-0.4-1.4-1.1-1.4c-0.5,0-0.9,0.3-1,0.8c0,0.1,0,0.2,0,0.3V66.8z"/>
		<path d="M147,66.6c0,0.9,0.6,1.3,1.3,1.3c0.5,0,0.8-0.1,1-0.2l0.1,0.5c-0.2,0.1-0.7,0.2-1.3,0.2c-1.2,0-1.8-0.8-1.8-1.9
			c0-1.1,0.7-2,1.8-2c1.2,0,1.6,1.1,1.6,1.8c0,0.1,0,0.2,0,0.3H147z M149,66.1c0-0.4-0.2-1.1-0.9-1.1c-0.7,0-1,0.6-1,1.1H149z"/>
		<path d="M150.5,65.7c0-0.4,0-0.8,0-1.2h0.6l0,0.7h0c0.2-0.5,0.6-0.8,1-0.8c0.1,0,0.1,0,0.2,0v0.6c-0.1,0-0.1,0-0.2,0
			c-0.5,0-0.8,0.4-0.9,0.9c0,0.1,0,0.2,0,0.3v2h-0.7V65.7z"/>
		<path d="M157.3,67.4c0,0.3,0,0.6,0.1,0.9h-0.6l-0.1-0.5h0c-0.2,0.3-0.6,0.6-1.1,0.6c-0.8,0-1.1-0.5-1.1-1.1c0-0.9,0.8-1.4,2.3-1.4
			v-0.1c0-0.3-0.1-0.9-0.9-0.9c-0.4,0-0.7,0.1-1,0.3l-0.2-0.5c0.3-0.2,0.8-0.3,1.2-0.3c1.1,0,1.4,0.8,1.4,1.5V67.4z M156.7,66.4
			c-0.7,0-1.6,0.1-1.6,0.8c0,0.4,0.3,0.7,0.6,0.7c0.5,0,0.8-0.3,0.9-0.6c0-0.1,0-0.2,0-0.2V66.4z"/>
		<path d="M161.1,68.2c-0.2,0.1-0.6,0.2-1.1,0.2c-1.1,0-1.9-0.8-1.9-1.9c0-1.2,0.8-2,2-2c0.4,0,0.8,0.1,0.9,0.2l-0.2,0.5
			c-0.2-0.1-0.4-0.2-0.8-0.2c-0.9,0-1.3,0.6-1.3,1.4c0,0.9,0.6,1.4,1.3,1.4c0.4,0,0.6-0.1,0.8-0.2L161.1,68.2z"/>
		<path d="M164.5,68.2c-0.2,0.1-0.6,0.2-1.1,0.2c-1.1,0-1.9-0.8-1.9-1.9c0-1.2,0.8-2,2-2c0.4,0,0.8,0.1,0.9,0.2l-0.2,0.5
			c-0.2-0.1-0.4-0.2-0.8-0.2c-0.9,0-1.3,0.6-1.3,1.4c0,0.9,0.6,1.4,1.3,1.4c0.4,0,0.6-0.1,0.8-0.2L164.5,68.2z"/>
		<path d="M168.5,67.3c0,0.4,0,0.7,0,1h-0.6l0-0.6h0c-0.2,0.3-0.6,0.7-1.2,0.7c-0.6,0-1.3-0.3-1.3-1.6v-2.2h0.7v2.1
			c0,0.7,0.2,1.2,0.8,1.2c0.5,0,0.8-0.3,0.9-0.6c0-0.1,0.1-0.2,0.1-0.3v-2.3h0.7V67.3z"/>
		<path d="M169.6,65.6c0-0.4,0-0.7,0-1h0.6l0,0.6h0c0.2-0.4,0.6-0.7,1.2-0.7c0.5,0,0.9,0.3,1.1,0.8h0c0.1-0.2,0.3-0.4,0.4-0.5
			c0.2-0.2,0.5-0.3,0.8-0.3c0.5,0,1.2,0.3,1.2,1.6v2.2h-0.7v-2.1c0-0.7-0.3-1.2-0.8-1.2c-0.4,0-0.7,0.3-0.8,0.6
			c0,0.1-0.1,0.2-0.1,0.3v2.3h-0.7v-2.2c0-0.6-0.3-1-0.8-1c-0.4,0-0.7,0.3-0.8,0.7c0,0.1-0.1,0.2-0.1,0.3v2.3h-0.7V65.6z"/>
		<path d="M176,67.6c0.2,0.1,0.6,0.3,0.9,0.3c0.5,0,0.7-0.2,0.7-0.6c0-0.3-0.2-0.5-0.7-0.7c-0.7-0.2-1-0.6-1-1.1
			c0-0.6,0.5-1.1,1.3-1.1c0.4,0,0.7,0.1,0.9,0.2l-0.2,0.5c-0.1-0.1-0.4-0.2-0.8-0.2c-0.4,0-0.6,0.2-0.6,0.5c0,0.3,0.2,0.4,0.7,0.6
			c0.6,0.2,1,0.6,1,1.1c0,0.7-0.5,1.1-1.4,1.1c-0.4,0-0.8-0.1-1.1-0.3L176,67.6z"/>
		<path d="M181.8,67.4c0,0.3,0,0.6,0.1,0.9h-0.6l-0.1-0.5h0c-0.2,0.3-0.6,0.6-1.1,0.6c-0.8,0-1.1-0.5-1.1-1.1c0-0.9,0.8-1.4,2.3-1.4
			v-0.1c0-0.3-0.1-0.9-0.9-0.9c-0.4,0-0.7,0.1-1,0.3l-0.2-0.5c0.3-0.2,0.8-0.3,1.2-0.3c1.1,0,1.4,0.8,1.4,1.5V67.4z M181.1,66.4
			c-0.7,0-1.6,0.1-1.6,0.8c0,0.4,0.3,0.7,0.6,0.7c0.5,0,0.8-0.3,0.9-0.6c0-0.1,0-0.2,0-0.2V66.4z"/>
		<path d="M182.9,65.6c0-0.4,0-0.7,0-1h0.6l0,0.6h0c0.2-0.3,0.6-0.7,1.2-0.7c0.5,0,1.3,0.3,1.3,1.6v2.2h-0.7v-2.2
			c0-0.6-0.2-1.1-0.9-1.1c-0.4,0-0.8,0.3-0.9,0.7c0,0.1,0,0.2,0,0.3v2.3h-0.7V65.6z"/>
		<path d="M187,67.9c0-0.3,0.2-0.5,0.5-0.5s0.5,0.2,0.5,0.5c0,0.3-0.2,0.5-0.5,0.5C187.2,68.4,187,68.2,187,67.9z"/>
		<path d="M188.6,67.9c0-0.3,0.2-0.5,0.5-0.5s0.5,0.2,0.5,0.5c0,0.3-0.2,0.5-0.5,0.5C188.8,68.4,188.6,68.2,188.6,67.9z"/>
	</g>
	<g>
		<path d="M136.2,78.5h0.7v4.7h2.2v0.6h-2.9V78.5z"/>
		<path d="M140.5,78.5v5.2h-0.7v-5.2H140.5z"/>
		<path d="M141.7,83.7v-5.2h0.7l1.7,2.6c0.4,0.6,0.7,1.2,0.9,1.7l0,0c-0.1-0.7-0.1-1.3-0.1-2.1v-2.2h0.6v5.2H145l-1.7-2.7
			c-0.4-0.6-0.7-1.2-1-1.7l0,0c0,0.7,0,1.3,0,2.2v2.2H141.7z"/>
		<path d="M146.8,78.5h0.7V81h0c0.1-0.2,0.3-0.4,0.4-0.6l1.6-2h0.8l-1.9,2.2l2,3h-0.8l-1.7-2.6l-0.5,0.6v2h-0.7V78.5z"/>
	</g>
	<path class="st1" d="M150.8,88.6h-15.5c-3.9,0-7.1-3.2-7.1-7.1v0c0-3.9,3.2-7.1,7.1-7.1h15.5c3.9,0,7.1,3.2,7.1,7.1v0
		C157.8,85.4,154.7,88.6,150.8,88.6z"/>
</g>
<g id="Слой_1__x28_копия_x29_" class="st2">
	<linearGradient id="SVGID_2_" gradientUnits="userSpaceOnUse" x1="100.883" y1="0" x2="100.883" y2="58.4894">
		<stop  offset="1.331947e-07" style="stop-color:#66604A"/>
		<stop  offset="1" style="stop-color:#615D52"/>
	</linearGradient>
	<rect class="st3" width="201.8" height="58.5"/>
	<g class="st4">
		<path class="st5" d="M88.4,62.9h-2v-1.4h5.8v1.4h-2.1V69h-1.7V62.9z"/>
		<path class="st5" d="M94.6,62c0,0.5-0.3,0.8-0.9,0.8c-0.5,0-0.9-0.4-0.9-0.8c0-0.5,0.4-0.8,0.9-0.8S94.5,61.6,94.6,62z M92.8,69
			v-5.5h1.7V69H92.8z"/>
		<path class="st5" d="M97.8,62.1v1.5H99v1.3h-1.2v2c0,0.7,0.2,1,0.7,1c0.2,0,0.3,0,0.5,0l0,1.3c-0.2,0.1-0.6,0.1-1.1,0.1
			c-0.5,0-1-0.2-1.3-0.5c-0.3-0.3-0.5-0.9-0.5-1.6v-2.2h-0.7v-1.3h0.7v-1L97.8,62.1z"/>
		<path class="st5" d="M100,61.1h1.7V69H100V61.1z"/>
		<path class="st5" d="M104.4,66.8c0,0.7,0.7,1,1.5,1c0.6,0,1.1-0.1,1.5-0.2l0.2,1.2c-0.6,0.2-1.2,0.3-2,0.3c-1.9,0-2.9-1.1-2.9-2.8
			c0-1.4,0.9-2.9,2.8-2.9c1.8,0,2.4,1.4,2.4,2.7c0,0.3,0,0.5-0.1,0.7H104.4z M106.4,65.7c0-0.4-0.2-1.1-1-1.1c-0.7,0-1,0.7-1.1,1.1
			H106.4z"/>
	</g>
	<g class="st4">
		<path class="st5" d="M15.6,73.7h0.7v4.7h2.3V79h-2.9V73.7z"/>
		<path class="st5" d="M22.5,77c0,1.4-1,2-1.9,2c-1,0-1.8-0.8-1.8-2c0-1.3,0.8-2,1.9-2C21.8,75.1,22.5,75.9,22.5,77z M19.5,77.1
			c0,0.8,0.5,1.5,1.1,1.5c0.7,0,1.1-0.6,1.1-1.5c0-0.6-0.3-1.5-1.1-1.5C19.9,75.6,19.5,76.3,19.5,77.1z"/>
		<path class="st5" d="M23.4,76.3c0-0.4,0-0.8,0-1.2H24l0,0.8h0c0.2-0.5,0.6-0.8,1.1-0.8c0.1,0,0.1,0,0.2,0v0.7c-0.1,0-0.1,0-0.2,0
			c-0.5,0-0.8,0.4-0.9,0.9c0,0.1,0,0.2,0,0.3v2h-0.7V76.3z"/>
		<path class="st5" d="M26.3,77.2c0,0.9,0.6,1.3,1.3,1.3c0.5,0,0.8-0.1,1-0.2l0.1,0.5c-0.2,0.1-0.7,0.2-1.3,0.2
			c-1.2,0-1.9-0.8-1.9-1.9s0.7-2,1.8-2c1.2,0,1.6,1.1,1.6,1.8c0,0.1,0,0.2,0,0.3H26.3z M28.3,76.7c0-0.4-0.2-1.1-1-1.1
			c-0.7,0-1,0.6-1.1,1.1H28.3z"/>
		<path class="st5" d="M29.8,76.2c0-0.4,0-0.7,0-1h0.6l0,0.6h0c0.2-0.4,0.6-0.7,1.2-0.7c0.5,0,0.9,0.3,1.1,0.8h0
			c0.1-0.2,0.3-0.4,0.4-0.5c0.2-0.2,0.5-0.3,0.8-0.3c0.5,0,1.3,0.3,1.3,1.7V79h-0.7v-2.1c0-0.7-0.3-1.2-0.8-1.2
			c-0.4,0-0.7,0.3-0.8,0.6c0,0.1-0.1,0.2-0.1,0.3V79h-0.7v-2.3c0-0.6-0.3-1-0.8-1c-0.4,0-0.7,0.3-0.9,0.7c0,0.1-0.1,0.2-0.1,0.3V79
			h-0.7V76.2z"/>
		<path class="st5" d="M38.7,74.1c0,0.2-0.2,0.4-0.4,0.4c-0.3,0-0.4-0.2-0.4-0.4s0.2-0.4,0.4-0.4C38.6,73.6,38.7,73.8,38.7,74.1z
			 M38,79v-3.8h0.7V79H38z"/>
		<path class="st5" d="M39.8,76.4c0-0.5,0-0.9,0-1.2h0.6l0,0.7h0c0.3-0.5,0.7-0.7,1.3-0.7c0.9,0,1.6,0.8,1.6,1.9c0,1.4-0.8,2-1.7,2
			c-0.5,0-0.9-0.2-1.2-0.6h0v2.1h-0.7V76.4z M40.5,77.4c0,0.1,0,0.2,0,0.3c0.1,0.5,0.5,0.8,1,0.8c0.7,0,1.1-0.6,1.1-1.5
			c0-0.8-0.4-1.4-1.1-1.4c-0.5,0-0.9,0.3-1,0.8c0,0.1,0,0.2,0,0.3V77.4z"/>
		<path class="st5" d="M44.1,78.3c0.2,0.1,0.6,0.3,0.9,0.3c0.5,0,0.7-0.2,0.7-0.6c0-0.3-0.2-0.5-0.7-0.7c-0.7-0.3-1-0.6-1-1.1
			c0-0.6,0.5-1.1,1.3-1.1c0.4,0,0.7,0.1,0.9,0.2l-0.2,0.5c-0.1-0.1-0.4-0.2-0.8-0.2c-0.4,0-0.6,0.2-0.6,0.5c0,0.3,0.2,0.5,0.7,0.7
			c0.6,0.2,1,0.6,1,1.1c0,0.7-0.5,1.1-1.4,1.1c-0.4,0-0.8-0.1-1.1-0.3L44.1,78.3z"/>
		<path class="st5" d="M50.5,77.9c0,0.4,0,0.7,0,1h-0.6l0-0.6h0c-0.2,0.3-0.6,0.7-1.3,0.7c-0.6,0-1.3-0.3-1.3-1.7v-2.2H48v2.1
			c0,0.7,0.2,1.2,0.8,1.2c0.5,0,0.8-0.3,0.9-0.6c0-0.1,0.1-0.2,0.1-0.4v-2.3h0.7V77.9z"/>
		<path class="st5" d="M51.6,76.2c0-0.4,0-0.7,0-1h0.6l0,0.6h0c0.2-0.4,0.6-0.7,1.2-0.7c0.5,0,0.9,0.3,1.1,0.8h0
			c0.1-0.2,0.3-0.4,0.4-0.5c0.2-0.2,0.5-0.3,0.8-0.3c0.5,0,1.3,0.3,1.3,1.7V79h-0.7v-2.1c0-0.7-0.3-1.2-0.8-1.2
			c-0.4,0-0.7,0.3-0.8,0.6c0,0.1-0.1,0.2-0.1,0.3V79H54v-2.3c0-0.6-0.3-1-0.8-1c-0.4,0-0.7,0.3-0.9,0.7c0,0.1-0.1,0.2-0.1,0.3V79
			h-0.7V76.2z"/>
		<path class="st5" d="M63.1,73.4V78c0,0.3,0,0.7,0,1h-0.6l0-0.7h0c-0.2,0.4-0.7,0.7-1.3,0.7c-0.9,0-1.6-0.8-1.6-1.9
			c0-1.3,0.8-2,1.7-2c0.6,0,1,0.3,1.1,0.6h0v-2.3H63.1z M62.4,76.7c0-0.1,0-0.2,0-0.3c-0.1-0.4-0.5-0.8-1-0.8
			c-0.7,0-1.1,0.6-1.1,1.5c0,0.8,0.4,1.4,1.1,1.4c0.5,0,0.9-0.3,1-0.8c0-0.1,0-0.2,0-0.3V76.7z"/>
		<path class="st5" d="M67.6,77c0,1.4-1,2-1.9,2c-1,0-1.8-0.8-1.8-2c0-1.3,0.8-2,1.9-2C66.9,75.1,67.6,75.9,67.6,77z M64.6,77.1
			c0,0.8,0.5,1.5,1.1,1.5c0.7,0,1.1-0.6,1.1-1.5c0-0.6-0.3-1.5-1.1-1.5C65,75.6,64.6,76.3,64.6,77.1z"/>
		<path class="st5" d="M68.5,73.4h0.7V79h-0.7V73.4z"/>
		<path class="st5" d="M73.7,77c0,1.4-1,2-1.9,2c-1,0-1.8-0.8-1.8-2c0-1.3,0.8-2,1.9-2C73,75.1,73.7,75.9,73.7,77z M70.8,77.1
			c0,0.8,0.5,1.5,1.1,1.5c0.7,0,1.1-0.6,1.1-1.5c0-0.6-0.3-1.5-1.1-1.5C71.1,75.6,70.8,76.3,70.8,77.1z"/>
		<path class="st5" d="M74.6,76.3c0-0.4,0-0.8,0-1.2h0.6l0,0.8h0c0.2-0.5,0.6-0.8,1.1-0.8c0.1,0,0.1,0,0.2,0v0.7c-0.1,0-0.1,0-0.2,0
			c-0.5,0-0.8,0.4-0.9,0.9c0,0.1,0,0.2,0,0.3v2h-0.7V76.3z"/>
		<path class="st5" d="M78.7,78.3c0.2,0.1,0.6,0.3,0.9,0.3c0.5,0,0.7-0.2,0.7-0.6c0-0.3-0.2-0.5-0.7-0.7c-0.7-0.3-1-0.6-1-1.1
			c0-0.6,0.5-1.1,1.3-1.1c0.4,0,0.7,0.1,0.9,0.2l-0.2,0.5c-0.1-0.1-0.4-0.2-0.8-0.2c-0.4,0-0.6,0.2-0.6,0.5c0,0.3,0.2,0.5,0.7,0.7
			c0.6,0.2,1,0.6,1,1.1c0,0.7-0.5,1.1-1.4,1.1c-0.4,0-0.8-0.1-1.1-0.3L78.7,78.3z"/>
		<path class="st5" d="M82.7,74.1c0,0.2-0.2,0.4-0.4,0.4c-0.3,0-0.4-0.2-0.4-0.4s0.2-0.4,0.4-0.4C82.5,73.6,82.7,73.8,82.7,74.1z
			 M81.9,79v-3.8h0.7V79H81.9z"/>
		<path class="st5" d="M84.6,74.2v0.9h1v0.5h-1v2.1c0,0.5,0.1,0.7,0.5,0.7c0.2,0,0.3,0,0.4,0l0,0.5c-0.1,0-0.3,0.1-0.6,0.1
			c-0.3,0-0.6-0.1-0.7-0.3c-0.2-0.2-0.3-0.6-0.3-1v-2.1h-0.6v-0.5h0.6v-0.7L84.6,74.2z"/>
		<path class="st5" d="M90.6,78.1c0,0.3,0,0.7,0.1,0.9h-0.6L90,78.5h0c-0.2,0.3-0.6,0.6-1.2,0.6c-0.8,0-1.2-0.5-1.2-1.1
			c0-0.9,0.8-1.4,2.3-1.4v-0.1c0-0.3-0.1-0.9-0.9-0.9c-0.4,0-0.7,0.1-1,0.3L88,75.4c0.3-0.2,0.8-0.3,1.3-0.3c1.2,0,1.4,0.8,1.4,1.6
			V78.1z M90,77c-0.8,0-1.6,0.1-1.6,0.9c0,0.5,0.3,0.7,0.6,0.7c0.5,0,0.8-0.3,0.9-0.6c0-0.1,0-0.2,0-0.2V77z"/>
		<path class="st5" d="M91.7,76.2c0-0.4,0-0.7,0-1h0.6l0,0.6h0c0.2-0.4,0.6-0.7,1.2-0.7c0.5,0,0.9,0.3,1.1,0.8h0
			c0.1-0.2,0.3-0.4,0.4-0.5c0.2-0.2,0.5-0.3,0.8-0.3c0.5,0,1.3,0.3,1.3,1.7V79h-0.7v-2.1c0-0.7-0.3-1.2-0.8-1.2
			c-0.4,0-0.7,0.3-0.8,0.6c0,0.1-0.1,0.2-0.1,0.3V79h-0.7v-2.3c0-0.6-0.3-1-0.8-1c-0.4,0-0.7,0.3-0.9,0.7c0,0.1-0.1,0.2-0.1,0.3V79
			h-0.7V76.2z"/>
		<path class="st5" d="M98.6,77.2c0,0.9,0.6,1.3,1.3,1.3c0.5,0,0.8-0.1,1-0.2l0.1,0.5c-0.2,0.1-0.7,0.2-1.3,0.2
			c-1.2,0-1.9-0.8-1.9-1.9s0.7-2,1.8-2c1.2,0,1.6,1.1,1.6,1.8c0,0.1,0,0.2,0,0.3H98.6z M100.7,76.7c0-0.4-0.2-1.1-1-1.1
			c-0.7,0-1,0.6-1.1,1.1H100.7z"/>
		<path class="st5" d="M103,74.2v0.9h1v0.5h-1v2.1c0,0.5,0.1,0.7,0.5,0.7c0.2,0,0.3,0,0.4,0l0,0.5c-0.1,0-0.3,0.1-0.6,0.1
			c-0.3,0-0.6-0.1-0.7-0.3c-0.2-0.2-0.3-0.6-0.3-1v-2.1h-0.6v-0.5h0.6v-0.7L103,74.2z"/>
		<path class="st5" d="M104.3,79.9c0.2-0.5,0.4-1.3,0.5-1.9l0.8-0.1c-0.2,0.7-0.5,1.5-0.8,1.9L104.3,79.9z"/>
		<path class="st5" d="M110.7,78.8c-0.2,0.1-0.6,0.2-1.1,0.2c-1.1,0-1.9-0.8-1.9-1.9c0-1.2,0.8-2,2-2c0.4,0,0.8,0.1,1,0.2l-0.2,0.5
			c-0.2-0.1-0.4-0.2-0.8-0.2c-0.9,0-1.3,0.7-1.3,1.4c0,0.9,0.6,1.4,1.3,1.4c0.4,0,0.6-0.1,0.8-0.2L110.7,78.8z"/>
		<path class="st5" d="M114.9,77c0,1.4-1,2-1.9,2c-1,0-1.8-0.8-1.8-2c0-1.3,0.8-2,1.9-2C114.1,75.1,114.9,75.9,114.9,77z
			 M111.9,77.1c0,0.8,0.5,1.5,1.1,1.5c0.7,0,1.1-0.6,1.1-1.5c0-0.6-0.3-1.5-1.1-1.5C112.2,75.6,111.9,76.3,111.9,77.1z"/>
		<path class="st5" d="M115.7,76.2c0-0.4,0-0.7,0-1h0.6l0,0.6h0c0.2-0.4,0.6-0.7,1.3-0.7c0.5,0,1.3,0.3,1.3,1.6V79h-0.7v-2.2
			c0-0.6-0.2-1.1-0.9-1.1c-0.4,0-0.8,0.3-0.9,0.7c0,0.1,0,0.2,0,0.3V79h-0.7V76.2z"/>
		<path class="st5" d="M120,78.3c0.2,0.1,0.6,0.3,0.9,0.3c0.5,0,0.7-0.2,0.7-0.6c0-0.3-0.2-0.5-0.7-0.7c-0.7-0.3-1-0.6-1-1.1
			c0-0.6,0.5-1.1,1.3-1.1c0.4,0,0.7,0.1,0.9,0.2l-0.2,0.5c-0.1-0.1-0.4-0.2-0.8-0.2c-0.4,0-0.6,0.2-0.6,0.5c0,0.3,0.2,0.5,0.7,0.7
			c0.6,0.2,1,0.6,1,1.1c0,0.7-0.5,1.1-1.4,1.1c-0.4,0-0.8-0.1-1.1-0.3L120,78.3z"/>
		<path class="st5" d="M123.6,77.2c0,0.9,0.6,1.3,1.3,1.3c0.5,0,0.8-0.1,1-0.2l0.1,0.5c-0.2,0.1-0.7,0.2-1.3,0.2
			c-1.2,0-1.9-0.8-1.9-1.9s0.7-2,1.8-2c1.2,0,1.6,1.1,1.6,1.8c0,0.1,0,0.2,0,0.3H123.6z M125.6,76.7c0-0.4-0.2-1.1-1-1.1
			c-0.7,0-1,0.6-1.1,1.1H125.6z"/>
		<path class="st5" d="M129.8,78.8c-0.2,0.1-0.6,0.2-1.1,0.2c-1.1,0-1.9-0.8-1.9-1.9c0-1.2,0.8-2,2-2c0.4,0,0.8,0.1,1,0.2l-0.2,0.5
			c-0.2-0.1-0.4-0.2-0.8-0.2c-0.9,0-1.3,0.7-1.3,1.4c0,0.9,0.6,1.4,1.3,1.4c0.4,0,0.6-0.1,0.8-0.2L129.8,78.8z"/>
		<path class="st5" d="M131.5,74.2v0.9h1v0.5h-1v2.1c0,0.5,0.1,0.7,0.5,0.7c0.2,0,0.3,0,0.4,0l0,0.5c-0.1,0-0.3,0.1-0.6,0.1
			c-0.3,0-0.6-0.1-0.7-0.3c-0.2-0.2-0.3-0.6-0.3-1v-2.1h-0.6v-0.5h0.6v-0.7L131.5,74.2z"/>
		<path class="st5" d="M133.6,77.2c0,0.9,0.6,1.3,1.3,1.3c0.5,0,0.8-0.1,1-0.2l0.1,0.5c-0.2,0.1-0.7,0.2-1.3,0.2
			c-1.2,0-1.9-0.8-1.9-1.9s0.7-2,1.8-2c1.2,0,1.6,1.1,1.6,1.8c0,0.1,0,0.2,0,0.3H133.6z M135.6,76.7c0-0.4-0.2-1.1-1-1.1
			c-0.7,0-1,0.6-1.1,1.1H135.6z"/>
		<path class="st5" d="M138,74.2v0.9h1v0.5h-1v2.1c0,0.5,0.1,0.7,0.5,0.7c0.2,0,0.3,0,0.4,0l0,0.5c-0.1,0-0.3,0.1-0.6,0.1
			c-0.3,0-0.6-0.1-0.7-0.3c-0.2-0.2-0.3-0.6-0.3-1v-2.1h-0.6v-0.5h0.6v-0.7L138,74.2z"/>
		<path class="st5" d="M142.9,77.9c0,0.4,0,0.7,0,1h-0.6l0-0.6h0c-0.2,0.3-0.6,0.7-1.3,0.7c-0.6,0-1.3-0.3-1.3-1.7v-2.2h0.7v2.1
			c0,0.7,0.2,1.2,0.8,1.2c0.5,0,0.8-0.3,0.9-0.6c0-0.1,0.1-0.2,0.1-0.4v-2.3h0.7V77.9z"/>
		<path class="st5" d="M146.1,77.2c0,0.9,0.6,1.3,1.3,1.3c0.5,0,0.8-0.1,1-0.2l0.1,0.5c-0.2,0.1-0.7,0.2-1.3,0.2
			c-1.2,0-1.9-0.8-1.9-1.9s0.7-2,1.8-2c1.2,0,1.6,1.1,1.6,1.8c0,0.1,0,0.2,0,0.3H146.1z M148.1,76.7c0-0.4-0.2-1.1-1-1.1
			c-0.7,0-1,0.6-1.1,1.1H148.1z"/>
		<path class="st5" d="M149.6,76.3c0-0.4,0-0.8,0-1.2h0.6l0,0.8h0c0.2-0.5,0.6-0.8,1.1-0.8c0.1,0,0.1,0,0.2,0v0.7
			c-0.1,0-0.1,0-0.2,0c-0.5,0-0.8,0.4-0.9,0.9c0,0.1,0,0.2,0,0.3v2h-0.7V76.3z"/>
		<path class="st5" d="M154.8,78.1c0,0.3,0,0.7,0.1,0.9h-0.6l-0.1-0.5h0c-0.2,0.3-0.6,0.6-1.2,0.6c-0.8,0-1.2-0.5-1.2-1.1
			c0-0.9,0.8-1.4,2.3-1.4v-0.1c0-0.3-0.1-0.9-0.9-0.9c-0.4,0-0.7,0.1-1,0.3l-0.2-0.5c0.3-0.2,0.8-0.3,1.3-0.3c1.2,0,1.4,0.8,1.4,1.6
			V78.1z M154.1,77c-0.8,0-1.6,0.1-1.6,0.9c0,0.5,0.3,0.7,0.6,0.7c0.5,0,0.8-0.3,0.9-0.6c0-0.1,0-0.2,0-0.2V77z"/>
		<path class="st5" d="M159.1,73.4V78c0,0.3,0,0.7,0,1h-0.6l0-0.7h0c-0.2,0.4-0.7,0.7-1.3,0.7c-0.9,0-1.6-0.8-1.6-1.9
			c0-1.3,0.8-2,1.7-2c0.6,0,1,0.3,1.1,0.6h0v-2.3H159.1z M158.4,76.7c0-0.1,0-0.2,0-0.3c-0.1-0.4-0.5-0.8-1-0.8
			c-0.7,0-1.1,0.6-1.1,1.5c0,0.8,0.4,1.4,1.1,1.4c0.5,0,0.9-0.3,1-0.8c0-0.1,0-0.2,0-0.3V76.7z"/>
		<path class="st5" d="M161,74.1c0,0.2-0.2,0.4-0.4,0.4c-0.3,0-0.4-0.2-0.4-0.4s0.2-0.4,0.4-0.4C160.9,73.6,161,73.8,161,74.1z
			 M160.3,79v-3.8h0.7V79H160.3z"/>
		<path class="st5" d="M162.1,76.4c0-0.5,0-0.9,0-1.2h0.6l0,0.7h0c0.3-0.5,0.7-0.7,1.3-0.7c0.9,0,1.6,0.8,1.6,1.9c0,1.4-0.8,2-1.7,2
			c-0.5,0-0.9-0.2-1.2-0.6h0v2.1h-0.7V76.4z M162.8,77.4c0,0.1,0,0.2,0,0.3c0.1,0.5,0.5,0.8,1,0.8c0.7,0,1.1-0.6,1.1-1.5
			c0-0.8-0.4-1.4-1.1-1.4c-0.5,0-0.9,0.3-1,0.8c0,0.1,0,0.2,0,0.3V77.4z"/>
		<path class="st5" d="M167.3,74.1c0,0.2-0.2,0.4-0.4,0.4c-0.3,0-0.4-0.2-0.4-0.4s0.2-0.4,0.4-0.4C167.1,73.6,167.3,73.8,167.3,74.1
			z M166.5,79v-3.8h0.7V79H166.5z"/>
		<path class="st5" d="M168.3,78.3c0.2,0.1,0.6,0.3,0.9,0.3c0.5,0,0.7-0.2,0.7-0.6c0-0.3-0.2-0.5-0.7-0.7c-0.7-0.3-1-0.6-1-1.1
			c0-0.6,0.5-1.1,1.3-1.1c0.4,0,0.7,0.1,0.9,0.2l-0.2,0.5c-0.1-0.1-0.4-0.2-0.8-0.2c-0.4,0-0.6,0.2-0.6,0.5c0,0.3,0.2,0.5,0.7,0.7
			c0.6,0.2,1,0.6,1,1.1c0,0.7-0.5,1.1-1.4,1.1c-0.4,0-0.8-0.1-1.1-0.3L168.3,78.3z"/>
		<path class="st5" d="M174.2,78.8c-0.2,0.1-0.6,0.2-1.1,0.2c-1.1,0-1.9-0.8-1.9-1.9c0-1.2,0.8-2,2-2c0.4,0,0.8,0.1,1,0.2l-0.2,0.5
			c-0.2-0.1-0.4-0.2-0.8-0.2c-0.9,0-1.3,0.7-1.3,1.4c0,0.9,0.6,1.4,1.3,1.4c0.4,0,0.6-0.1,0.8-0.2L174.2,78.8z"/>
		<path class="st5" d="M175.7,74.1c0,0.2-0.2,0.4-0.4,0.4c-0.3,0-0.4-0.2-0.4-0.4s0.2-0.4,0.4-0.4C175.6,73.6,175.7,73.8,175.7,74.1
			z M175,79v-3.8h0.7V79H175z"/>
		<path class="st5" d="M176.8,76.2c0-0.4,0-0.7,0-1h0.6l0,0.6h0c0.2-0.4,0.6-0.7,1.3-0.7c0.5,0,1.3,0.3,1.3,1.6V79h-0.7v-2.2
			c0-0.6-0.2-1.1-0.9-1.1c-0.4,0-0.8,0.3-0.9,0.7c0,0.1,0,0.2,0,0.3V79h-0.7V76.2z"/>
		<path class="st5" d="M184.4,78.4c0,0.9-0.2,1.4-0.5,1.7c-0.4,0.3-0.9,0.5-1.4,0.5c-0.5,0-1-0.1-1.3-0.3l0.2-0.5
			c0.3,0.2,0.6,0.3,1.1,0.3c0.7,0,1.2-0.4,1.2-1.3v-0.4h0c-0.2,0.4-0.6,0.6-1.2,0.6c-0.9,0-1.6-0.8-1.6-1.9c0-1.3,0.8-2,1.7-2
			c0.7,0,1,0.3,1.2,0.7h0l0-0.6h0.6c0,0.3,0,0.6,0,1V78.4z M183.7,76.7c0-0.1,0-0.2,0-0.3c-0.1-0.4-0.5-0.7-1-0.7
			c-0.7,0-1.1,0.6-1.1,1.4c0,0.7,0.4,1.4,1.1,1.4c0.4,0,0.8-0.3,1-0.7c0-0.1,0.1-0.3,0.1-0.4V76.7z"/>
		<path class="st5" d="M15.9,86.6c0,0.9,0.6,1.3,1.3,1.3c0.5,0,0.8-0.1,1-0.2l0.1,0.5c-0.2,0.1-0.7,0.2-1.3,0.2
			c-1.2,0-1.9-0.8-1.9-1.9s0.7-2,1.8-2c1.2,0,1.6,1.1,1.6,1.8c0,0.1,0,0.2,0,0.3H15.9z M17.9,86.1c0-0.4-0.2-1.1-1-1.1
			c-0.7,0-1,0.6-1.1,1.1H17.9z"/>
		<path class="st5" d="M19.5,82.8h0.7v5.6h-0.7V82.8z"/>
		<path class="st5" d="M22.1,83.5c0,0.2-0.2,0.4-0.4,0.4c-0.3,0-0.4-0.2-0.4-0.4s0.2-0.4,0.4-0.4C21.9,83.1,22.1,83.3,22.1,83.5z
			 M21.3,88.4v-3.8H22v3.8H21.3z"/>
		<path class="st5" d="M23.9,83.7v0.9h1v0.5h-1v2.1c0,0.5,0.1,0.7,0.5,0.7c0.2,0,0.3,0,0.4,0l0,0.5c-0.1,0-0.3,0.1-0.6,0.1
			c-0.3,0-0.6-0.1-0.7-0.3c-0.2-0.2-0.3-0.6-0.3-1v-2.1h-0.6v-0.5h0.6v-0.7L23.9,83.7z"/>
		<path class="st5" d="M25.5,88c0-0.3,0.2-0.5,0.5-0.5s0.5,0.2,0.5,0.5c0,0.3-0.2,0.5-0.5,0.5C25.7,88.5,25.5,88.3,25.5,88z"/>
		<path class="st5" d="M32.6,88.3c-0.2,0.1-0.8,0.3-1.4,0.3c-1.5,0-2.6-0.9-2.6-2.7c0-1.7,1.1-2.8,2.8-2.8c0.6,0,1.1,0.1,1.3,0.2
			l-0.2,0.6c-0.3-0.1-0.6-0.2-1.1-0.2c-1.2,0-2.1,0.8-2.1,2.2c0,1.3,0.7,2.1,2,2.1c0.4,0,0.8-0.1,1.1-0.2L32.6,88.3z"/>
		<path class="st5" d="M33.5,85.8c0-0.4,0-0.8,0-1.2H34l0,0.8h0c0.2-0.5,0.6-0.8,1.1-0.8c0.1,0,0.1,0,0.2,0v0.7c-0.1,0-0.1,0-0.2,0
			c-0.5,0-0.8,0.4-0.9,0.9c0,0.1,0,0.2,0,0.3v2h-0.7V85.8z"/>
		<path class="st5" d="M38.6,87.5c0,0.3,0,0.7,0.1,0.9h-0.6L38,87.9h0c-0.2,0.3-0.6,0.6-1.2,0.6c-0.8,0-1.2-0.5-1.2-1.1
			c0-0.9,0.8-1.4,2.3-1.4v-0.1c0-0.3-0.1-0.9-0.9-0.9c-0.4,0-0.7,0.1-1,0.3l-0.2-0.5c0.3-0.2,0.8-0.3,1.3-0.3c1.2,0,1.4,0.8,1.4,1.6
			V87.5z M38,86.5c-0.8,0-1.6,0.1-1.6,0.9c0,0.5,0.3,0.7,0.6,0.7c0.5,0,0.8-0.3,0.9-0.6c0-0.1,0-0.2,0-0.2V86.5z"/>
		<path class="st5" d="M39.6,87.7c0.2,0.1,0.6,0.3,0.9,0.3c0.5,0,0.7-0.2,0.7-0.6c0-0.3-0.2-0.5-0.7-0.7c-0.7-0.3-1-0.6-1-1.1
			c0-0.6,0.5-1.1,1.3-1.1c0.4,0,0.7,0.1,0.9,0.2l-0.2,0.5c-0.1-0.1-0.4-0.2-0.8-0.2c-0.4,0-0.6,0.2-0.6,0.5c0,0.3,0.2,0.5,0.7,0.7
			c0.6,0.2,1,0.6,1,1.1c0,0.7-0.5,1.1-1.4,1.1c-0.4,0-0.8-0.1-1.1-0.3L39.6,87.7z"/>
		<path class="st5" d="M43.2,86.6c0,0.9,0.6,1.3,1.3,1.3c0.5,0,0.8-0.1,1-0.2l0.1,0.5c-0.2,0.1-0.7,0.2-1.3,0.2
			c-1.2,0-1.9-0.8-1.9-1.9s0.7-2,1.8-2c1.2,0,1.6,1.1,1.6,1.8c0,0.1,0,0.2,0,0.3H43.2z M45.2,86.1c0-0.4-0.2-1.1-1-1.1
			c-0.7,0-1,0.6-1.1,1.1H45.2z"/>
		<path class="st5" d="M47.6,83.7v0.9h1v0.5h-1v2.1c0,0.5,0.1,0.7,0.5,0.7c0.2,0,0.3,0,0.4,0l0,0.5c-0.1,0-0.3,0.1-0.6,0.1
			c-0.3,0-0.6-0.1-0.7-0.3c-0.2-0.2-0.3-0.6-0.3-1v-2.1h-0.6v-0.5h0.6v-0.7L47.6,83.7z"/>
		<path class="st5" d="M51.7,83.5c0,0.2-0.2,0.4-0.4,0.4c-0.3,0-0.4-0.2-0.4-0.4s0.2-0.4,0.4-0.4C51.6,83.1,51.7,83.3,51.7,83.5z
			 M51,88.4v-3.8h0.7v3.8H51z"/>
		<path class="st5" d="M52.8,85.9c0-0.5,0-0.9,0-1.2h0.6l0,0.7h0c0.3-0.5,0.7-0.7,1.3-0.7c0.9,0,1.6,0.8,1.6,1.9c0,1.4-0.8,2-1.7,2
			c-0.5,0-0.9-0.2-1.2-0.6h0V90h-0.7V85.9z M53.5,86.9c0,0.1,0,0.2,0,0.3c0.1,0.5,0.5,0.8,1,0.8c0.7,0,1.1-0.6,1.1-1.5
			c0-0.8-0.4-1.4-1.1-1.4c-0.5,0-0.9,0.3-1,0.8c0,0.1,0,0.2,0,0.3V86.9z"/>
		<path class="st5" d="M57.2,87.7c0.2,0.1,0.6,0.3,0.9,0.3c0.5,0,0.7-0.2,0.7-0.6c0-0.3-0.2-0.5-0.7-0.7c-0.7-0.3-1-0.6-1-1.1
			c0-0.6,0.5-1.1,1.3-1.1c0.4,0,0.7,0.1,0.9,0.2l-0.2,0.5C59,85.2,58.7,85,58.4,85c-0.4,0-0.6,0.2-0.6,0.5c0,0.3,0.2,0.5,0.7,0.7
			c0.6,0.2,1,0.6,1,1.1c0,0.7-0.5,1.1-1.4,1.1c-0.4,0-0.8-0.1-1.1-0.3L57.2,87.7z"/>
		<path class="st5" d="M63.5,87.4c0,0.4,0,0.7,0,1h-0.6l0-0.6h0c-0.2,0.3-0.6,0.7-1.3,0.7c-0.6,0-1.3-0.3-1.3-1.7v-2.2H61v2.1
			c0,0.7,0.2,1.2,0.8,1.2c0.5,0,0.8-0.3,0.9-0.6c0-0.1,0.1-0.2,0.1-0.4v-2.3h0.7V87.4z"/>
		<path class="st5" d="M64.6,85.6c0-0.4,0-0.7,0-1h0.6l0,0.6h0c0.2-0.4,0.6-0.7,1.2-0.7c0.5,0,0.9,0.3,1.1,0.8h0
			c0.1-0.2,0.3-0.4,0.4-0.5c0.2-0.2,0.5-0.3,0.8-0.3c0.5,0,1.3,0.3,1.3,1.7v2.2h-0.7v-2.1c0-0.7-0.3-1.2-0.8-1.2
			c-0.4,0-0.7,0.3-0.8,0.6c0,0.1-0.1,0.2-0.1,0.3v2.4H67v-2.3c0-0.6-0.3-1-0.8-1c-0.4,0-0.7,0.3-0.9,0.7c0,0.1-0.1,0.2-0.1,0.3v2.3
			h-0.7V85.6z"/>
		<path class="st5" d="M75.4,87.8L75.4,87.8c-0.2,0.4-0.6,0.7-1.3,0.7c-0.9,0-1.6-0.8-1.6-1.9c0-1.4,0.9-2.1,1.7-2.1
			c0.6,0,1,0.3,1.2,0.7h0l0-0.6h0.6c0,0.3,0,0.7,0,1V90h-0.7V87.8z M75.4,86.2c0-0.1,0-0.2,0-0.3c-0.1-0.4-0.5-0.8-1-0.8
			c-0.7,0-1.1,0.6-1.1,1.5c0,0.8,0.4,1.4,1.1,1.4c0.4,0,0.8-0.3,1-0.7c0-0.1,0.1-0.2,0.1-0.3V86.2z"/>
		<path class="st5" d="M80.4,87.4c0,0.4,0,0.7,0,1h-0.6l0-0.6h0c-0.2,0.3-0.6,0.7-1.3,0.7c-0.6,0-1.3-0.3-1.3-1.7v-2.2h0.7v2.1
			c0,0.7,0.2,1.2,0.8,1.2c0.5,0,0.8-0.3,0.9-0.6c0-0.1,0.1-0.2,0.1-0.4v-2.3h0.7V87.4z"/>
		<path class="st5" d="M82.3,83.5c0,0.2-0.2,0.4-0.4,0.4c-0.3,0-0.4-0.2-0.4-0.4s0.2-0.4,0.4-0.4C82.1,83.1,82.3,83.3,82.3,83.5z
			 M81.5,88.4v-3.8h0.7v3.8H81.5z"/>
		<path class="st5" d="M83.3,87.7c0.2,0.1,0.6,0.3,0.9,0.3c0.5,0,0.7-0.2,0.7-0.6c0-0.3-0.2-0.5-0.7-0.7c-0.7-0.3-1-0.6-1-1.1
			c0-0.6,0.5-1.1,1.3-1.1c0.4,0,0.7,0.1,0.9,0.2l-0.2,0.5c-0.1-0.1-0.4-0.2-0.8-0.2c-0.4,0-0.6,0.2-0.6,0.5c0,0.3,0.2,0.5,0.7,0.7
			c0.6,0.2,1,0.6,1,1.1c0,0.7-0.5,1.1-1.4,1.1c-0.4,0-0.8-0.1-1.1-0.3L83.3,87.7z"/>
		<path class="st5" d="M88.1,85.6c0-0.4,0-0.7,0-1h0.6l0,0.6h0c0.2-0.4,0.6-0.7,1.2-0.7c0.5,0,0.9,0.3,1.1,0.8h0
			c0.1-0.2,0.3-0.4,0.4-0.5c0.2-0.2,0.5-0.3,0.8-0.3c0.5,0,1.3,0.3,1.3,1.7v2.2h-0.7v-2.1c0-0.7-0.3-1.2-0.8-1.2
			c-0.4,0-0.7,0.3-0.8,0.6c0,0.1-0.1,0.2-0.1,0.3v2.4h-0.7v-2.3c0-0.6-0.3-1-0.8-1c-0.4,0-0.7,0.3-0.9,0.7c0,0.1-0.1,0.2-0.1,0.3
			v2.3h-0.7V85.6z"/>
		<path class="st5" d="M95.4,83.5c0,0.2-0.2,0.4-0.4,0.4c-0.3,0-0.4-0.2-0.4-0.4s0.2-0.4,0.4-0.4C95.2,83.1,95.4,83.3,95.4,83.5z
			 M94.6,88.4v-3.8h0.7v3.8H94.6z"/>
		<path class="st5" d="M98,87.7c0.2,0.1,0.6,0.3,0.9,0.3c0.5,0,0.7-0.2,0.7-0.6c0-0.3-0.2-0.5-0.7-0.7c-0.7-0.3-1-0.6-1-1.1
			c0-0.6,0.5-1.1,1.3-1.1c0.4,0,0.7,0.1,0.9,0.2l-0.2,0.5c-0.1-0.1-0.4-0.2-0.8-0.2c-0.4,0-0.6,0.2-0.6,0.5c0,0.3,0.2,0.5,0.7,0.7
			c0.6,0.2,1,0.6,1,1.1c0,0.7-0.5,1.1-1.4,1.1c-0.4,0-0.8-0.1-1.1-0.3L98,87.7z"/>
		<path class="st5" d="M101.6,86.6c0,0.9,0.6,1.3,1.3,1.3c0.5,0,0.8-0.1,1-0.2l0.1,0.5c-0.2,0.1-0.7,0.2-1.3,0.2
			c-1.2,0-1.9-0.8-1.9-1.9s0.7-2,1.8-2c1.2,0,1.6,1.1,1.6,1.8c0,0.1,0,0.2,0,0.3H101.6z M103.6,86.1c0-0.4-0.2-1.1-1-1.1
			c-0.7,0-1,0.6-1.1,1.1H103.6z"/>
		<path class="st5" d="M105.1,85.6c0-0.4,0-0.7,0-1h0.6l0,0.6h0c0.2-0.4,0.6-0.7,1.2-0.7c0.5,0,0.9,0.3,1.1,0.8h0
			c0.1-0.2,0.3-0.4,0.4-0.5c0.2-0.2,0.5-0.3,0.8-0.3c0.5,0,1.3,0.3,1.3,1.7v2.2h-0.7v-2.1c0-0.7-0.3-1.2-0.8-1.2
			c-0.4,0-0.7,0.3-0.8,0.6c0,0.1-0.1,0.2-0.1,0.3v2.4h-0.7v-2.3c0-0.6-0.3-1-0.8-1c-0.4,0-0.7,0.3-0.9,0.7c0,0.1-0.1,0.2-0.1,0.3
			v2.3h-0.7V85.6z"/>
		<path class="st5" d="M111.6,85.9c0-0.5,0-0.9,0-1.2h0.6l0,0.7h0c0.3-0.5,0.7-0.7,1.3-0.7c0.9,0,1.6,0.8,1.6,1.9c0,1.4-0.8,2-1.7,2
			c-0.5,0-0.9-0.2-1.2-0.6h0V90h-0.7V85.9z M112.3,86.9c0,0.1,0,0.2,0,0.3c0.1,0.5,0.5,0.8,1,0.8c0.7,0,1.1-0.6,1.1-1.5
			c0-0.8-0.4-1.4-1.1-1.4c-0.5,0-0.9,0.3-1,0.8c0,0.1,0,0.2,0,0.3V86.9z"/>
		<path class="st5" d="M116.4,86.6c0,0.9,0.6,1.3,1.3,1.3c0.5,0,0.8-0.1,1-0.2l0.1,0.5c-0.2,0.1-0.7,0.2-1.3,0.2
			c-1.2,0-1.9-0.8-1.9-1.9s0.7-2,1.8-2c1.2,0,1.6,1.1,1.6,1.8c0,0.1,0,0.2,0,0.3H116.4z M118.5,86.1c0-0.4-0.2-1.1-1-1.1
			c-0.7,0-1,0.6-1.1,1.1H118.5z"/>
		<path class="st5" d="M120,85.8c0-0.4,0-0.8,0-1.2h0.6l0,0.8h0c0.2-0.5,0.6-0.8,1.1-0.8c0.1,0,0.1,0,0.2,0v0.7c-0.1,0-0.1,0-0.2,0
			c-0.5,0-0.8,0.4-0.9,0.9c0,0.1,0,0.2,0,0.3v2H120V85.8z"/>
		<path class="st5" d="M126.8,87.5c0,0.3,0,0.7,0.1,0.9h-0.6l-0.1-0.5h0c-0.2,0.3-0.6,0.6-1.2,0.6c-0.8,0-1.2-0.5-1.2-1.1
			c0-0.9,0.8-1.4,2.3-1.4v-0.1c0-0.3-0.1-0.9-0.9-0.9c-0.4,0-0.7,0.1-1,0.3l-0.2-0.5c0.3-0.2,0.8-0.3,1.3-0.3c1.2,0,1.4,0.8,1.4,1.6
			V87.5z M126.2,86.5c-0.8,0-1.6,0.1-1.6,0.9c0,0.5,0.3,0.7,0.6,0.7c0.5,0,0.8-0.3,0.9-0.6c0-0.1,0-0.2,0-0.2V86.5z"/>
		<path class="st5" d="M130.6,88.3c-0.2,0.1-0.6,0.2-1.1,0.2c-1.1,0-1.9-0.8-1.9-1.9c0-1.2,0.8-2,2-2c0.4,0,0.8,0.1,1,0.2l-0.2,0.5
			c-0.2-0.1-0.4-0.2-0.8-0.2c-0.9,0-1.3,0.7-1.3,1.4c0,0.9,0.6,1.4,1.3,1.4c0.4,0,0.6-0.1,0.8-0.2L130.6,88.3z"/>
		<path class="st5" d="M134.1,88.3c-0.2,0.1-0.6,0.2-1.1,0.2c-1.1,0-1.9-0.8-1.9-1.9c0-1.2,0.8-2,2-2c0.4,0,0.8,0.1,1,0.2l-0.2,0.5
			c-0.2-0.1-0.4-0.2-0.8-0.2c-0.9,0-1.3,0.7-1.3,1.4c0,0.9,0.6,1.4,1.3,1.4c0.4,0,0.6-0.1,0.8-0.2L134.1,88.3z"/>
		<path class="st5" d="M138.1,87.4c0,0.4,0,0.7,0,1h-0.6l0-0.6h0c-0.2,0.3-0.6,0.7-1.3,0.7c-0.6,0-1.3-0.3-1.3-1.7v-2.2h0.7v2.1
			c0,0.7,0.2,1.2,0.8,1.2c0.5,0,0.8-0.3,0.9-0.6c0-0.1,0.1-0.2,0.1-0.4v-2.3h0.7V87.4z"/>
		<path class="st5" d="M139.2,85.6c0-0.4,0-0.7,0-1h0.6l0,0.6h0c0.2-0.4,0.6-0.7,1.2-0.7c0.5,0,0.9,0.3,1.1,0.8h0
			c0.1-0.2,0.3-0.4,0.4-0.5c0.2-0.2,0.5-0.3,0.8-0.3c0.5,0,1.3,0.3,1.3,1.7v2.2h-0.7v-2.1c0-0.7-0.3-1.2-0.8-1.2
			c-0.4,0-0.7,0.3-0.8,0.6c0,0.1-0.1,0.2-0.1,0.3v2.4h-0.7v-2.3c0-0.6-0.3-1-0.8-1c-0.4,0-0.7,0.3-0.9,0.7c0,0.1-0.1,0.2-0.1,0.3
			v2.3h-0.7V85.6z"/>
		<path class="st5" d="M145.6,87.7c0.2,0.1,0.6,0.3,0.9,0.3c0.5,0,0.7-0.2,0.7-0.6c0-0.3-0.2-0.5-0.7-0.7c-0.7-0.3-1-0.6-1-1.1
			c0-0.6,0.5-1.1,1.3-1.1c0.4,0,0.7,0.1,0.9,0.2l-0.2,0.5c-0.1-0.1-0.4-0.2-0.8-0.2c-0.4,0-0.6,0.2-0.6,0.5c0,0.3,0.2,0.5,0.7,0.7
			c0.6,0.2,1,0.6,1,1.1c0,0.7-0.5,1.1-1.4,1.1c-0.4,0-0.8-0.1-1.1-0.3L145.6,87.7z"/>
		<path class="st5" d="M151.5,87.5c0,0.3,0,0.7,0.1,0.9h-0.6l-0.1-0.5h0c-0.2,0.3-0.6,0.6-1.2,0.6c-0.8,0-1.2-0.5-1.2-1.1
			c0-0.9,0.8-1.4,2.3-1.4v-0.1c0-0.3-0.1-0.9-0.9-0.9c-0.4,0-0.7,0.1-1,0.3l-0.2-0.5c0.3-0.2,0.8-0.3,1.3-0.3c1.2,0,1.4,0.8,1.4,1.6
			V87.5z M150.8,86.5c-0.8,0-1.6,0.1-1.6,0.9c0,0.5,0.3,0.7,0.6,0.7c0.5,0,0.8-0.3,0.9-0.6c0-0.1,0-0.2,0-0.2V86.5z"/>
		<path class="st5" d="M152.6,85.6c0-0.4,0-0.7,0-1h0.6l0,0.6h0c0.2-0.4,0.6-0.7,1.3-0.7c0.5,0,1.3,0.3,1.3,1.6v2.3h-0.7v-2.2
			c0-0.6-0.2-1.1-0.9-1.1c-0.4,0-0.8,0.3-0.9,0.7c0,0.1,0,0.2,0,0.3v2.3h-0.7V85.6z"/>
		<path class="st5" d="M156.7,88c0-0.3,0.2-0.5,0.5-0.5s0.5,0.2,0.5,0.5c0,0.3-0.2,0.5-0.5,0.5C156.9,88.5,156.7,88.3,156.7,88z"/>
		<path class="st5" d="M158.3,88c0-0.3,0.2-0.5,0.5-0.5s0.5,0.2,0.5,0.5c0,0.3-0.2,0.5-0.5,0.5C158.5,88.5,158.3,88.3,158.3,88z"/>
	</g>
	<g class="st4">
		<path class="st5" d="M88.2,92.4h0.7V97h2.2v0.6h-2.9V92.4z"/>
		<path class="st5" d="M92.5,92.4v5.2h-0.7v-5.2H92.5z"/>
		<path class="st5" d="M93.7,97.6v-5.2h0.7l1.7,2.6c0.4,0.6,0.7,1.2,0.9,1.7l0,0C97,96,97,95.4,97,94.6v-2.2h0.6v5.2h-0.7l-1.7-2.7
			c-0.4-0.6-0.7-1.2-1-1.7l0,0c0,0.7,0,1.3,0,2.2v2.2H93.7z"/>
		<path class="st5" d="M98.8,92.4h0.7v2.5h0c0.1-0.2,0.3-0.4,0.4-0.6l1.6-2h0.8l-1.9,2.2l2,3h-0.8L100,95l-0.5,0.6v2h-0.7V92.4z"/>
	</g>
</g>
<g id="Слой_1__x28_копия2_x29_" class="st2">
	<linearGradient id="SVGID_3_" gradientUnits="userSpaceOnUse" x1="100" y1="0" x2="100" y2="100">
		<stop  offset="1.331947e-07" style="stop-color:#66604A"/>
		<stop  offset="1" style="stop-color:#615D52"/>
	</linearGradient>
	<rect class="st6" width="200" height="100"/>
	<g class="st4">
		<path class="st7" d="M92.3,44.4h-2V43h5.8v1.4H94v6.1h-1.7V44.4z"/>
		<path class="st7" d="M98.4,43.5c0,0.5-0.3,0.8-0.9,0.8c-0.5,0-0.9-0.4-0.9-0.8c0-0.5,0.4-0.9,0.9-0.9S98.4,43,98.4,43.5z
			 M96.6,50.5V45h1.7v5.5H96.6z"/>
		<path class="st7" d="M101.6,43.5V45h1.2v1.3h-1.2v2c0,0.7,0.2,1,0.7,1c0.2,0,0.3,0,0.5,0l0,1.3c-0.2,0.1-0.6,0.1-1.1,0.1
			c-0.5,0-1-0.2-1.3-0.5c-0.3-0.3-0.5-0.9-0.5-1.6v-2.2h-0.7V45h0.7v-1L101.6,43.5z"/>
		<path class="st7" d="M103.8,42.5h1.7v7.9h-1.7V42.5z"/>
		<path class="st7" d="M108.2,48.3c0,0.7,0.7,1,1.5,1c0.6,0,1.1-0.1,1.5-0.2l0.2,1.2c-0.6,0.2-1.2,0.3-2,0.3c-1.9,0-2.9-1.1-2.9-2.8
			c0-1.4,0.9-2.9,2.8-2.9c1.8,0,2.4,1.4,2.4,2.7c0,0.3,0,0.5-0.1,0.7H108.2z M110.2,47.1c0-0.4-0.2-1.1-1-1.1c-0.7,0-1,0.7-1.1,1.1
			H110.2z"/>
	</g>
	<g class="st4">
		<path class="st7" d="M19.4,58.5h0.7v4.7h2.3v0.6h-2.9V58.5z"/>
		<path class="st7" d="M26.4,61.9c0,1.4-1,2-1.9,2c-1,0-1.8-0.8-1.8-2c0-1.3,0.8-2,1.9-2C25.6,59.9,26.4,60.7,26.4,61.9z M23.4,61.9
			c0,0.8,0.5,1.5,1.1,1.5c0.7,0,1.1-0.6,1.1-1.5c0-0.6-0.3-1.5-1.1-1.5C23.7,60.5,23.4,61.2,23.4,61.9z"/>
		<path class="st7" d="M27.2,61.2c0-0.4,0-0.8,0-1.2h0.6l0,0.8h0c0.2-0.5,0.6-0.8,1.1-0.8c0.1,0,0.1,0,0.2,0v0.7c-0.1,0-0.1,0-0.2,0
			c-0.5,0-0.8,0.4-0.9,0.9c0,0.1,0,0.2,0,0.3v2h-0.7V61.2z"/>
		<path class="st7" d="M30.1,62.1c0,0.9,0.6,1.3,1.3,1.3c0.5,0,0.8-0.1,1-0.2l0.1,0.5c-0.2,0.1-0.7,0.2-1.3,0.2
			c-1.2,0-1.9-0.8-1.9-1.9s0.7-2,1.8-2c1.2,0,1.6,1.1,1.6,1.8c0,0.1,0,0.2,0,0.3H30.1z M32.1,61.6c0-0.4-0.2-1.1-1-1.1
			c-0.7,0-1,0.6-1.1,1.1H32.1z"/>
		<path class="st7" d="M33.6,61.1c0-0.4,0-0.7,0-1h0.6l0,0.6h0c0.2-0.4,0.6-0.7,1.2-0.7c0.5,0,0.9,0.3,1.1,0.8h0
			c0.1-0.2,0.3-0.4,0.4-0.5c0.2-0.2,0.5-0.3,0.8-0.3c0.5,0,1.3,0.3,1.3,1.7v2.2h-0.7v-2.1c0-0.7-0.3-1.2-0.8-1.2
			c-0.4,0-0.7,0.3-0.8,0.6c0,0.1-0.1,0.2-0.1,0.3v2.4H36v-2.3c0-0.6-0.3-1-0.8-1c-0.4,0-0.7,0.3-0.9,0.7c0,0.1-0.1,0.2-0.1,0.3v2.3
			h-0.7V61.1z"/>
		<path class="st7" d="M42.6,59c0,0.2-0.2,0.4-0.4,0.4c-0.3,0-0.4-0.2-0.4-0.4s0.2-0.4,0.4-0.4C42.4,58.5,42.6,58.7,42.6,59z
			 M41.8,63.8V60h0.7v3.8H41.8z"/>
		<path class="st7" d="M43.6,61.3c0-0.5,0-0.9,0-1.2h0.6l0,0.7h0c0.3-0.5,0.7-0.7,1.3-0.7c0.9,0,1.6,0.8,1.6,1.9c0,1.4-0.8,2-1.7,2
			c-0.5,0-0.9-0.2-1.2-0.6h0v2.1h-0.7V61.3z M44.3,62.3c0,0.1,0,0.2,0,0.3c0.1,0.5,0.5,0.8,1,0.8c0.7,0,1.1-0.6,1.1-1.5
			c0-0.8-0.4-1.4-1.1-1.4c-0.5,0-0.9,0.3-1,0.8c0,0.1,0,0.2,0,0.3V62.3z"/>
		<path class="st7" d="M48,63.1c0.2,0.1,0.6,0.3,0.9,0.3c0.5,0,0.7-0.2,0.7-0.6c0-0.3-0.2-0.5-0.7-0.7c-0.7-0.3-1-0.6-1-1.1
			c0-0.6,0.5-1.1,1.3-1.1c0.4,0,0.7,0.1,0.9,0.2L50,60.7c-0.1-0.1-0.4-0.2-0.8-0.2c-0.4,0-0.6,0.2-0.6,0.5c0,0.3,0.2,0.5,0.7,0.7
			c0.6,0.2,1,0.6,1,1.1c0,0.7-0.5,1.1-1.4,1.1c-0.4,0-0.8-0.1-1.1-0.3L48,63.1z"/>
		<path class="st7" d="M54.3,62.8c0,0.4,0,0.7,0,1h-0.6l0-0.6h0c-0.2,0.3-0.6,0.7-1.3,0.7c-0.6,0-1.3-0.3-1.3-1.7V60h0.7v2.1
			c0,0.7,0.2,1.2,0.8,1.2c0.5,0,0.8-0.3,0.9-0.6c0-0.1,0.1-0.2,0.1-0.4V60h0.7V62.8z"/>
		<path class="st7" d="M55.5,61.1c0-0.4,0-0.7,0-1H56l0,0.6h0c0.2-0.4,0.6-0.7,1.2-0.7c0.5,0,0.9,0.3,1.1,0.8h0
			c0.1-0.2,0.3-0.4,0.4-0.5c0.2-0.2,0.5-0.3,0.8-0.3c0.5,0,1.3,0.3,1.3,1.7v2.2h-0.7v-2.1c0-0.7-0.3-1.2-0.8-1.2
			c-0.4,0-0.7,0.3-0.8,0.6c0,0.1-0.1,0.2-0.1,0.3v2.4h-0.7v-2.3c0-0.6-0.3-1-0.8-1c-0.4,0-0.7,0.3-0.9,0.7c0,0.1-0.1,0.2-0.1,0.3
			v2.3h-0.7V61.1z"/>
		<path class="st7" d="M66.9,58.2v4.6c0,0.3,0,0.7,0,1h-0.6l0-0.7h0c-0.2,0.4-0.7,0.7-1.3,0.7c-0.9,0-1.6-0.8-1.6-1.9
			c0-1.3,0.8-2,1.7-2c0.6,0,1,0.3,1.1,0.6h0v-2.3H66.9z M66.2,61.6c0-0.1,0-0.2,0-0.3c-0.1-0.4-0.5-0.8-1-0.8
			c-0.7,0-1.1,0.6-1.1,1.5c0,0.8,0.4,1.4,1.1,1.4c0.5,0,0.9-0.3,1-0.8c0-0.1,0-0.2,0-0.3V61.6z"/>
		<path class="st7" d="M71.5,61.9c0,1.4-1,2-1.9,2c-1,0-1.8-0.8-1.8-2c0-1.3,0.8-2,1.9-2C70.7,59.9,71.5,60.7,71.5,61.9z M68.5,61.9
			c0,0.8,0.5,1.5,1.1,1.5c0.7,0,1.1-0.6,1.1-1.5c0-0.6-0.3-1.5-1.1-1.5C68.8,60.5,68.5,61.2,68.5,61.9z"/>
		<path class="st7" d="M72.3,58.2H73v5.6h-0.7V58.2z"/>
		<path class="st7" d="M77.6,61.9c0,1.4-1,2-1.9,2c-1,0-1.8-0.8-1.8-2c0-1.3,0.8-2,1.9-2C76.9,59.9,77.6,60.7,77.6,61.9z M74.6,61.9
			c0,0.8,0.5,1.5,1.1,1.5c0.7,0,1.1-0.6,1.1-1.5c0-0.6-0.3-1.5-1.1-1.5C75,60.5,74.6,61.2,74.6,61.9z"/>
		<path class="st7" d="M78.5,61.2c0-0.4,0-0.8,0-1.2H79l0,0.8h0c0.2-0.5,0.6-0.8,1.1-0.8c0.1,0,0.1,0,0.2,0v0.7c-0.1,0-0.1,0-0.2,0
			c-0.5,0-0.8,0.4-0.9,0.9c0,0.1,0,0.2,0,0.3v2h-0.7V61.2z"/>
		<path class="st7" d="M82.6,63.1c0.2,0.1,0.6,0.3,0.9,0.3c0.5,0,0.7-0.2,0.7-0.6c0-0.3-0.2-0.5-0.7-0.7c-0.7-0.3-1-0.6-1-1.1
			c0-0.6,0.5-1.1,1.3-1.1c0.4,0,0.7,0.1,0.9,0.2l-0.2,0.5c-0.1-0.1-0.4-0.2-0.8-0.2c-0.4,0-0.6,0.2-0.6,0.5c0,0.3,0.2,0.5,0.7,0.7
			c0.6,0.2,1,0.6,1,1.1c0,0.7-0.5,1.1-1.4,1.1c-0.4,0-0.8-0.1-1.1-0.3L82.6,63.1z"/>
		<path class="st7" d="M86.5,59c0,0.2-0.2,0.4-0.4,0.4c-0.3,0-0.4-0.2-0.4-0.4s0.2-0.4,0.4-0.4C86.4,58.5,86.5,58.7,86.5,59z
			 M85.8,63.8V60h0.7v3.8H85.8z"/>
		<path class="st7" d="M88.4,59.1V60h1v0.5h-1v2.1c0,0.5,0.1,0.7,0.5,0.7c0.2,0,0.3,0,0.4,0l0,0.5c-0.1,0-0.3,0.1-0.6,0.1
			c-0.3,0-0.6-0.1-0.7-0.3c-0.2-0.2-0.3-0.6-0.3-1v-2.1h-0.6V60h0.6v-0.7L88.4,59.1z"/>
		<path class="st7" d="M94.5,62.9c0,0.3,0,0.7,0.1,0.9h-0.6l-0.1-0.5h0c-0.2,0.3-0.6,0.6-1.2,0.6c-0.8,0-1.2-0.5-1.2-1.1
			c0-0.9,0.8-1.4,2.3-1.4v-0.1c0-0.3-0.1-0.9-0.9-0.9c-0.4,0-0.7,0.1-1,0.3l-0.2-0.5c0.3-0.2,0.8-0.3,1.3-0.3c1.2,0,1.4,0.8,1.4,1.6
			V62.9z M93.8,61.9c-0.8,0-1.6,0.1-1.6,0.9c0,0.5,0.3,0.7,0.6,0.7c0.5,0,0.8-0.3,0.9-0.6c0-0.1,0-0.2,0-0.2V61.9z"/>
		<path class="st7" d="M95.6,61.1c0-0.4,0-0.7,0-1h0.6l0,0.6h0c0.2-0.4,0.6-0.7,1.2-0.7c0.5,0,0.9,0.3,1.1,0.8h0
			c0.1-0.2,0.3-0.4,0.4-0.5c0.2-0.2,0.5-0.3,0.8-0.3c0.5,0,1.3,0.3,1.3,1.7v2.2h-0.7v-2.1c0-0.7-0.3-1.2-0.8-1.2
			c-0.4,0-0.7,0.3-0.8,0.6c0,0.1-0.1,0.2-0.1,0.3v2.4H98v-2.3c0-0.6-0.3-1-0.8-1c-0.4,0-0.7,0.3-0.9,0.7c0,0.1-0.1,0.2-0.1,0.3v2.3
			h-0.7V61.1z"/>
		<path class="st7" d="M102.5,62.1c0,0.9,0.6,1.3,1.3,1.3c0.5,0,0.8-0.1,1-0.2l0.1,0.5c-0.2,0.1-0.7,0.2-1.3,0.2
			c-1.2,0-1.9-0.8-1.9-1.9s0.7-2,1.8-2c1.2,0,1.6,1.1,1.6,1.8c0,0.1,0,0.2,0,0.3H102.5z M104.5,61.6c0-0.4-0.2-1.1-1-1.1
			c-0.7,0-1,0.6-1.1,1.1H104.5z"/>
		<path class="st7" d="M106.8,59.1V60h1v0.5h-1v2.1c0,0.5,0.1,0.7,0.5,0.7c0.2,0,0.3,0,0.4,0l0,0.5c-0.1,0-0.3,0.1-0.6,0.1
			c-0.3,0-0.6-0.1-0.7-0.3c-0.2-0.2-0.3-0.6-0.3-1v-2.1h-0.6V60h0.6v-0.7L106.8,59.1z"/>
		<path class="st7" d="M108.1,64.8c0.2-0.5,0.4-1.3,0.5-1.9l0.8-0.1c-0.2,0.7-0.5,1.5-0.8,1.9L108.1,64.8z"/>
		<path class="st7" d="M114.5,63.7c-0.2,0.1-0.6,0.2-1.1,0.2c-1.1,0-1.9-0.8-1.9-1.9c0-1.2,0.8-2,2-2c0.4,0,0.8,0.1,1,0.2l-0.2,0.5
			c-0.2-0.1-0.4-0.2-0.8-0.2c-0.9,0-1.3,0.7-1.3,1.4c0,0.9,0.6,1.4,1.3,1.4c0.4,0,0.6-0.1,0.8-0.2L114.5,63.7z"/>
		<path class="st7" d="M118.7,61.9c0,1.4-1,2-1.9,2c-1,0-1.8-0.8-1.8-2c0-1.3,0.8-2,1.9-2C118,59.9,118.7,60.7,118.7,61.9z
			 M115.7,61.9c0,0.8,0.5,1.5,1.1,1.5c0.7,0,1.1-0.6,1.1-1.5c0-0.6-0.3-1.5-1.1-1.5C116.1,60.5,115.7,61.2,115.7,61.9z"/>
		<path class="st7" d="M119.6,61.1c0-0.4,0-0.7,0-1h0.6l0,0.6h0c0.2-0.4,0.6-0.7,1.3-0.7c0.5,0,1.3,0.3,1.3,1.6v2.3h-0.7v-2.2
			c0-0.6-0.2-1.1-0.9-1.1c-0.4,0-0.8,0.3-0.9,0.7c0,0.1,0,0.2,0,0.3v2.3h-0.7V61.1z"/>
		<path class="st7" d="M123.8,63.1c0.2,0.1,0.6,0.3,0.9,0.3c0.5,0,0.7-0.2,0.7-0.6c0-0.3-0.2-0.5-0.7-0.7c-0.7-0.3-1-0.6-1-1.1
			c0-0.6,0.5-1.1,1.3-1.1c0.4,0,0.7,0.1,0.9,0.2l-0.2,0.5c-0.1-0.1-0.4-0.2-0.8-0.2c-0.4,0-0.6,0.2-0.6,0.5c0,0.3,0.2,0.5,0.7,0.7
			c0.6,0.2,1,0.6,1,1.1c0,0.7-0.5,1.1-1.4,1.1c-0.4,0-0.8-0.1-1.1-0.3L123.8,63.1z"/>
		<path class="st7" d="M127.4,62.1c0,0.9,0.6,1.3,1.3,1.3c0.5,0,0.8-0.1,1-0.2l0.1,0.5c-0.2,0.1-0.7,0.2-1.3,0.2
			c-1.2,0-1.9-0.8-1.9-1.9s0.7-2,1.8-2c1.2,0,1.6,1.1,1.6,1.8c0,0.1,0,0.2,0,0.3H127.4z M129.4,61.6c0-0.4-0.2-1.1-1-1.1
			c-0.7,0-1,0.6-1.1,1.1H129.4z"/>
		<path class="st7" d="M133.6,63.7c-0.2,0.1-0.6,0.2-1.1,0.2c-1.1,0-1.9-0.8-1.9-1.9c0-1.2,0.8-2,2-2c0.4,0,0.8,0.1,1,0.2l-0.2,0.5
			c-0.2-0.1-0.4-0.2-0.8-0.2c-0.9,0-1.3,0.7-1.3,1.4c0,0.9,0.6,1.4,1.3,1.4c0.4,0,0.6-0.1,0.8-0.2L133.6,63.7z"/>
		<path class="st7" d="M135.4,59.1V60h1v0.5h-1v2.1c0,0.5,0.1,0.7,0.5,0.7c0.2,0,0.3,0,0.4,0l0,0.5c-0.1,0-0.3,0.1-0.6,0.1
			c-0.3,0-0.6-0.1-0.7-0.3c-0.2-0.2-0.3-0.6-0.3-1v-2.1h-0.6V60h0.6v-0.7L135.4,59.1z"/>
		<path class="st7" d="M137.5,62.1c0,0.9,0.6,1.3,1.3,1.3c0.5,0,0.8-0.1,1-0.2l0.1,0.5c-0.2,0.1-0.7,0.2-1.3,0.2
			c-1.2,0-1.9-0.8-1.9-1.9s0.7-2,1.8-2c1.2,0,1.6,1.1,1.6,1.8c0,0.1,0,0.2,0,0.3H137.5z M139.5,61.6c0-0.4-0.2-1.1-1-1.1
			c-0.7,0-1,0.6-1.1,1.1H139.5z"/>
		<path class="st7" d="M141.8,59.1V60h1v0.5h-1v2.1c0,0.5,0.1,0.7,0.5,0.7c0.2,0,0.3,0,0.4,0l0,0.5c-0.1,0-0.3,0.1-0.6,0.1
			c-0.3,0-0.6-0.1-0.7-0.3c-0.2-0.2-0.3-0.6-0.3-1v-2.1h-0.6V60h0.6v-0.7L141.8,59.1z"/>
		<path class="st7" d="M146.7,62.8c0,0.4,0,0.7,0,1h-0.6l0-0.6h0c-0.2,0.3-0.6,0.7-1.3,0.7c-0.6,0-1.3-0.3-1.3-1.7V60h0.7v2.1
			c0,0.7,0.2,1.2,0.8,1.2c0.5,0,0.8-0.3,0.9-0.6c0-0.1,0.1-0.2,0.1-0.4V60h0.7V62.8z"/>
		<path class="st7" d="M149.9,62.1c0,0.9,0.6,1.3,1.3,1.3c0.5,0,0.8-0.1,1-0.2l0.1,0.5c-0.2,0.1-0.7,0.2-1.3,0.2
			c-1.2,0-1.9-0.8-1.9-1.9s0.7-2,1.8-2c1.2,0,1.6,1.1,1.6,1.8c0,0.1,0,0.2,0,0.3H149.9z M151.9,61.6c0-0.4-0.2-1.1-1-1.1
			c-0.7,0-1,0.6-1.1,1.1H151.9z"/>
		<path class="st7" d="M153.4,61.2c0-0.4,0-0.8,0-1.2h0.6l0,0.8h0c0.2-0.5,0.6-0.8,1.1-0.8c0.1,0,0.1,0,0.2,0v0.7
			c-0.1,0-0.1,0-0.2,0c-0.5,0-0.8,0.4-0.9,0.9c0,0.1,0,0.2,0,0.3v2h-0.7V61.2z"/>
		<path class="st7" d="M158.6,62.9c0,0.3,0,0.7,0.1,0.9H158l-0.1-0.5h0c-0.2,0.3-0.6,0.6-1.2,0.6c-0.8,0-1.2-0.5-1.2-1.1
			c0-0.9,0.8-1.4,2.3-1.4v-0.1c0-0.3-0.1-0.9-0.9-0.9c-0.4,0-0.7,0.1-1,0.3l-0.2-0.5c0.3-0.2,0.8-0.3,1.3-0.3c1.2,0,1.4,0.8,1.4,1.6
			V62.9z M157.9,61.9c-0.8,0-1.6,0.1-1.6,0.9c0,0.5,0.3,0.7,0.6,0.7c0.5,0,0.8-0.3,0.9-0.6c0-0.1,0-0.2,0-0.2V61.9z"/>
		<path class="st7" d="M163,58.2v4.6c0,0.3,0,0.7,0,1h-0.6l0-0.7h0c-0.2,0.4-0.7,0.7-1.3,0.7c-0.9,0-1.6-0.8-1.6-1.9
			c0-1.3,0.8-2,1.7-2c0.6,0,1,0.3,1.1,0.6h0v-2.3H163z M162.3,61.6c0-0.1,0-0.2,0-0.3c-0.1-0.4-0.5-0.8-1-0.8
			c-0.7,0-1.1,0.6-1.1,1.5c0,0.8,0.4,1.4,1.1,1.4c0.5,0,0.9-0.3,1-0.8c0-0.1,0-0.2,0-0.3V61.6z"/>
		<path class="st7" d="M164.9,59c0,0.2-0.2,0.4-0.4,0.4c-0.3,0-0.4-0.2-0.4-0.4s0.2-0.4,0.4-0.4C164.7,58.5,164.9,58.7,164.9,59z
			 M164.1,63.8V60h0.7v3.8H164.1z"/>
		<path class="st7" d="M165.9,61.3c0-0.5,0-0.9,0-1.2h0.6l0,0.7h0c0.3-0.5,0.7-0.7,1.3-0.7c0.9,0,1.6,0.8,1.6,1.9c0,1.4-0.8,2-1.7,2
			c-0.5,0-0.9-0.2-1.2-0.6h0v2.1h-0.7V61.3z M166.6,62.3c0,0.1,0,0.2,0,0.3c0.1,0.5,0.5,0.8,1,0.8c0.7,0,1.1-0.6,1.1-1.5
			c0-0.8-0.4-1.4-1.1-1.4c-0.5,0-0.9,0.3-1,0.8c0,0.1,0,0.2,0,0.3V62.3z"/>
		<path class="st7" d="M171.2,59c0,0.2-0.2,0.4-0.4,0.4c-0.3,0-0.4-0.2-0.4-0.4s0.2-0.4,0.4-0.4C171,58.5,171.2,58.7,171.2,59z
			 M170.4,63.8V60h0.7v3.8H170.4z"/>
		<path class="st7" d="M172.1,63.1c0.2,0.1,0.6,0.3,0.9,0.3c0.5,0,0.7-0.2,0.7-0.6c0-0.3-0.2-0.5-0.7-0.7c-0.7-0.3-1-0.6-1-1.1
			c0-0.6,0.5-1.1,1.3-1.1c0.4,0,0.7,0.1,0.9,0.2l-0.2,0.5c-0.1-0.1-0.4-0.2-0.8-0.2c-0.4,0-0.6,0.2-0.6,0.5c0,0.3,0.2,0.5,0.7,0.7
			c0.6,0.2,1,0.6,1,1.1c0,0.7-0.5,1.1-1.4,1.1c-0.4,0-0.8-0.1-1.1-0.3L172.1,63.1z"/>
		<path class="st7" d="M178,63.7c-0.2,0.1-0.6,0.2-1.1,0.2c-1.1,0-1.9-0.8-1.9-1.9c0-1.2,0.8-2,2-2c0.4,0,0.8,0.1,1,0.2l-0.2,0.5
			c-0.2-0.1-0.4-0.2-0.8-0.2c-0.9,0-1.3,0.7-1.3,1.4c0,0.9,0.6,1.4,1.3,1.4c0.4,0,0.6-0.1,0.8-0.2L178,63.7z"/>
		<path class="st7" d="M179.6,59c0,0.2-0.2,0.4-0.4,0.4c-0.3,0-0.4-0.2-0.4-0.4s0.2-0.4,0.4-0.4C179.4,58.5,179.6,58.7,179.6,59z
			 M178.8,63.8V60h0.7v3.8H178.8z"/>
		<path class="st7" d="M180.6,61.1c0-0.4,0-0.7,0-1h0.6l0,0.6h0c0.2-0.4,0.6-0.7,1.3-0.7c0.5,0,1.3,0.3,1.3,1.6v2.3h-0.7v-2.2
			c0-0.6-0.2-1.1-0.9-1.1c-0.4,0-0.8,0.3-0.9,0.7c0,0.1,0,0.2,0,0.3v2.3h-0.7V61.1z"/>
		<path class="st7" d="M188.2,63.3c0,0.9-0.2,1.4-0.5,1.7c-0.4,0.3-0.9,0.5-1.4,0.5c-0.5,0-1-0.1-1.3-0.3l0.2-0.5
			c0.3,0.2,0.6,0.3,1.1,0.3c0.7,0,1.2-0.4,1.2-1.3v-0.4h0c-0.2,0.4-0.6,0.6-1.2,0.6c-0.9,0-1.6-0.8-1.6-1.9c0-1.3,0.8-2,1.7-2
			c0.7,0,1,0.3,1.2,0.7h0l0-0.6h0.6c0,0.3,0,0.6,0,1V63.3z M187.5,61.5c0-0.1,0-0.2,0-0.3c-0.1-0.4-0.5-0.7-1-0.7
			c-0.7,0-1.1,0.6-1.1,1.4c0,0.7,0.4,1.4,1.1,1.4c0.4,0,0.8-0.3,1-0.7c0-0.1,0.1-0.3,0.1-0.4V61.5z"/>
		<path class="st7" d="M19.8,71.5c0,0.9,0.6,1.3,1.3,1.3c0.5,0,0.8-0.1,1-0.2l0.1,0.5c-0.2,0.1-0.7,0.2-1.3,0.2
			c-1.2,0-1.9-0.8-1.9-1.9s0.7-2,1.8-2c1.2,0,1.6,1.1,1.6,1.8c0,0.1,0,0.2,0,0.3H19.8z M21.8,71c0-0.4-0.2-1.1-1-1.1
			c-0.7,0-1,0.6-1.1,1.1H21.8z"/>
		<path class="st7" d="M23.3,67.7H24v5.6h-0.7V67.7z"/>
		<path class="st7" d="M25.9,68.4c0,0.2-0.2,0.4-0.4,0.4c-0.3,0-0.4-0.2-0.4-0.4s0.2-0.4,0.4-0.4C25.7,68,25.9,68.2,25.9,68.4z
			 M25.1,73.3v-3.8h0.7v3.8H25.1z"/>
		<path class="st7" d="M27.8,68.6v0.9h1V70h-1v2.1c0,0.5,0.1,0.7,0.5,0.7c0.2,0,0.3,0,0.4,0l0,0.5c-0.1,0-0.3,0.1-0.6,0.1
			c-0.3,0-0.6-0.1-0.7-0.3c-0.2-0.2-0.3-0.6-0.3-1V70h-0.6v-0.5h0.6v-0.7L27.8,68.6z"/>
		<path class="st7" d="M29.4,72.9c0-0.3,0.2-0.5,0.5-0.5s0.5,0.2,0.5,0.5c0,0.3-0.2,0.5-0.5,0.5C29.5,73.4,29.4,73.2,29.4,72.9z"/>
		<path class="st7" d="M36.5,73.1c-0.2,0.1-0.8,0.3-1.4,0.3c-1.5,0-2.6-0.9-2.6-2.7c0-1.7,1.1-2.8,2.8-2.8c0.6,0,1.1,0.1,1.3,0.2
			l-0.2,0.6c-0.3-0.1-0.6-0.2-1.1-0.2c-1.2,0-2.1,0.8-2.1,2.2c0,1.3,0.7,2.1,2,2.1c0.4,0,0.8-0.1,1.1-0.2L36.5,73.1z"/>
		<path class="st7" d="M37.3,70.7c0-0.4,0-0.8,0-1.2h0.6l0,0.8h0c0.2-0.5,0.6-0.8,1.1-0.8c0.1,0,0.1,0,0.2,0v0.7c-0.1,0-0.1,0-0.2,0
			c-0.5,0-0.8,0.4-0.9,0.9c0,0.1,0,0.2,0,0.3v2h-0.7V70.7z"/>
		<path class="st7" d="M42.5,72.4c0,0.3,0,0.7,0.1,0.9h-0.6l-0.1-0.5h0c-0.2,0.3-0.6,0.6-1.2,0.6c-0.8,0-1.2-0.5-1.2-1.1
			c0-0.9,0.8-1.4,2.3-1.4v-0.1c0-0.3-0.1-0.9-0.9-0.9c-0.4,0-0.7,0.1-1,0.3l-0.2-0.5c0.3-0.2,0.8-0.3,1.3-0.3c1.2,0,1.4,0.8,1.4,1.6
			V72.4z M41.8,71.3c-0.8,0-1.6,0.1-1.6,0.9c0,0.5,0.3,0.7,0.6,0.7c0.5,0,0.8-0.3,0.9-0.6c0-0.1,0-0.2,0-0.2V71.3z"/>
		<path class="st7" d="M43.5,72.6c0.2,0.1,0.6,0.3,0.9,0.3c0.5,0,0.7-0.2,0.7-0.6c0-0.3-0.2-0.5-0.7-0.7c-0.7-0.3-1-0.6-1-1.1
			c0-0.6,0.5-1.1,1.3-1.1c0.4,0,0.7,0.1,0.9,0.2l-0.2,0.5c-0.1-0.1-0.4-0.2-0.8-0.2c-0.4,0-0.6,0.2-0.6,0.5c0,0.3,0.2,0.5,0.7,0.7
			c0.6,0.2,1,0.6,1,1.1c0,0.7-0.5,1.1-1.4,1.1c-0.4,0-0.8-0.1-1.1-0.3L43.5,72.6z"/>
		<path class="st7" d="M47.1,71.5c0,0.9,0.6,1.3,1.3,1.3c0.5,0,0.8-0.1,1-0.2l0.1,0.5c-0.2,0.1-0.7,0.2-1.3,0.2
			c-1.2,0-1.9-0.8-1.9-1.9s0.7-2,1.8-2c1.2,0,1.6,1.1,1.6,1.8c0,0.1,0,0.2,0,0.3H47.1z M49.1,71c0-0.4-0.2-1.1-1-1.1
			c-0.7,0-1,0.6-1.1,1.1H49.1z"/>
		<path class="st7" d="M51.4,68.6v0.9h1V70h-1v2.1c0,0.5,0.1,0.7,0.5,0.7c0.2,0,0.3,0,0.4,0l0,0.5c-0.1,0-0.3,0.1-0.6,0.1
			c-0.3,0-0.6-0.1-0.7-0.3c-0.2-0.2-0.3-0.6-0.3-1V70h-0.6v-0.5h0.6v-0.7L51.4,68.6z"/>
		<path class="st7" d="M55.6,68.4c0,0.2-0.2,0.4-0.4,0.4c-0.3,0-0.4-0.2-0.4-0.4s0.2-0.4,0.4-0.4C55.4,68,55.6,68.2,55.6,68.4z
			 M54.8,73.3v-3.8h0.7v3.8H54.8z"/>
		<path class="st7" d="M56.7,70.7c0-0.5,0-0.9,0-1.2h0.6l0,0.7h0c0.3-0.5,0.7-0.7,1.3-0.7c0.9,0,1.6,0.8,1.6,1.9c0,1.4-0.8,2-1.7,2
			c-0.5,0-0.9-0.2-1.2-0.6h0v2.1h-0.7V70.7z M57.3,71.7c0,0.1,0,0.2,0,0.3c0.1,0.5,0.5,0.8,1,0.8c0.7,0,1.1-0.6,1.1-1.5
			c0-0.8-0.4-1.4-1.1-1.4c-0.5,0-0.9,0.3-1,0.8c0,0.1,0,0.2,0,0.3V71.7z"/>
		<path class="st7" d="M61,72.6c0.2,0.1,0.6,0.3,0.9,0.3c0.5,0,0.7-0.2,0.7-0.6c0-0.3-0.2-0.5-0.7-0.7c-0.7-0.3-1-0.6-1-1.1
			c0-0.6,0.5-1.1,1.3-1.1c0.4,0,0.7,0.1,0.9,0.2L63,70.1c-0.1-0.1-0.4-0.2-0.8-0.2c-0.4,0-0.6,0.2-0.6,0.5c0,0.3,0.2,0.5,0.7,0.7
			c0.6,0.2,1,0.6,1,1.1c0,0.7-0.5,1.1-1.4,1.1c-0.4,0-0.8-0.1-1.1-0.3L61,72.6z"/>
		<path class="st7" d="M67.4,72.2c0,0.4,0,0.7,0,1h-0.6l0-0.6h0c-0.2,0.3-0.6,0.7-1.3,0.7c-0.6,0-1.3-0.3-1.3-1.7v-2.2h0.7v2.1
			c0,0.7,0.2,1.2,0.8,1.2c0.5,0,0.8-0.3,0.9-0.6c0-0.1,0.1-0.2,0.1-0.4v-2.3h0.7V72.2z"/>
		<path class="st7" d="M68.5,70.5c0-0.4,0-0.7,0-1h0.6l0,0.6h0c0.2-0.4,0.6-0.7,1.2-0.7c0.5,0,0.9,0.3,1.1,0.8h0
			c0.1-0.2,0.3-0.4,0.4-0.5c0.2-0.2,0.5-0.3,0.8-0.3c0.5,0,1.3,0.3,1.3,1.7v2.2h-0.7v-2.1c0-0.7-0.3-1.2-0.8-1.2
			c-0.4,0-0.7,0.3-0.8,0.6c0,0.1-0.1,0.2-0.1,0.3v2.4h-0.7V71c0-0.6-0.3-1-0.8-1c-0.4,0-0.7,0.3-0.9,0.7c0,0.1-0.1,0.2-0.1,0.3v2.3
			h-0.7V70.5z"/>
		<path class="st7" d="M79.2,72.7L79.2,72.7c-0.2,0.4-0.6,0.7-1.3,0.7c-0.9,0-1.6-0.8-1.6-1.9c0-1.4,0.9-2.1,1.7-2.1
			c0.6,0,1,0.3,1.2,0.7h0l0-0.6H80c0,0.3,0,0.7,0,1v4.3h-0.7V72.7z M79.2,71c0-0.1,0-0.2,0-0.3c-0.1-0.4-0.5-0.8-1-0.8
			c-0.7,0-1.1,0.6-1.1,1.5c0,0.8,0.4,1.4,1.1,1.4c0.4,0,0.8-0.3,1-0.7c0-0.1,0.1-0.2,0.1-0.3V71z"/>
		<path class="st7" d="M84.2,72.2c0,0.4,0,0.7,0,1h-0.6l0-0.6h0c-0.2,0.3-0.6,0.7-1.3,0.7c-0.6,0-1.3-0.3-1.3-1.7v-2.2h0.7v2.1
			c0,0.7,0.2,1.2,0.8,1.2c0.5,0,0.8-0.3,0.9-0.6c0-0.1,0.1-0.2,0.1-0.4v-2.3h0.7V72.2z"/>
		<path class="st7" d="M86.1,68.4c0,0.2-0.2,0.4-0.4,0.4c-0.3,0-0.4-0.2-0.4-0.4s0.2-0.4,0.4-0.4C86,68,86.1,68.2,86.1,68.4z
			 M85.4,73.3v-3.8H86v3.8H85.4z"/>
		<path class="st7" d="M87.1,72.6c0.2,0.1,0.6,0.3,0.9,0.3c0.5,0,0.7-0.2,0.7-0.6c0-0.3-0.2-0.5-0.7-0.7c-0.7-0.3-1-0.6-1-1.1
			c0-0.6,0.5-1.1,1.3-1.1c0.4,0,0.7,0.1,0.9,0.2l-0.2,0.5c-0.1-0.1-0.4-0.2-0.8-0.2c-0.4,0-0.6,0.2-0.6,0.5c0,0.3,0.2,0.5,0.7,0.7
			c0.6,0.2,1,0.6,1,1.1c0,0.7-0.5,1.1-1.4,1.1c-0.4,0-0.8-0.1-1.1-0.3L87.1,72.6z"/>
		<path class="st7" d="M91.9,70.5c0-0.4,0-0.7,0-1h0.6l0,0.6h0c0.2-0.4,0.6-0.7,1.2-0.7c0.5,0,0.9,0.3,1.1,0.8h0
			c0.1-0.2,0.3-0.4,0.4-0.5c0.2-0.2,0.5-0.3,0.8-0.3c0.5,0,1.3,0.3,1.3,1.7v2.2h-0.7v-2.1c0-0.7-0.3-1.2-0.8-1.2
			c-0.4,0-0.7,0.3-0.8,0.6c0,0.1-0.1,0.2-0.1,0.3v2.4h-0.7V71c0-0.6-0.3-1-0.8-1c-0.4,0-0.7,0.3-0.9,0.7c0,0.1-0.1,0.2-0.1,0.3v2.3
			h-0.7V70.5z"/>
		<path class="st7" d="M99.2,68.4c0,0.2-0.2,0.4-0.4,0.4c-0.3,0-0.4-0.2-0.4-0.4s0.2-0.4,0.4-0.4C99,68,99.2,68.2,99.2,68.4z
			 M98.5,73.3v-3.8h0.7v3.8H98.5z"/>
		<path class="st7" d="M101.8,72.6c0.2,0.1,0.6,0.3,0.9,0.3c0.5,0,0.7-0.2,0.7-0.6c0-0.3-0.2-0.5-0.7-0.7c-0.7-0.3-1-0.6-1-1.1
			c0-0.6,0.5-1.1,1.3-1.1c0.4,0,0.7,0.1,0.9,0.2l-0.2,0.5c-0.1-0.1-0.4-0.2-0.8-0.2c-0.4,0-0.6,0.2-0.6,0.5c0,0.3,0.2,0.5,0.7,0.7
			c0.6,0.2,1,0.6,1,1.1c0,0.7-0.5,1.1-1.4,1.1c-0.4,0-0.8-0.1-1.1-0.3L101.8,72.6z"/>
		<path class="st7" d="M105.4,71.5c0,0.9,0.6,1.3,1.3,1.3c0.5,0,0.8-0.1,1-0.2l0.1,0.5c-0.2,0.1-0.7,0.2-1.3,0.2
			c-1.2,0-1.9-0.8-1.9-1.9s0.7-2,1.8-2c1.2,0,1.6,1.1,1.6,1.8c0,0.1,0,0.2,0,0.3H105.4z M107.4,71c0-0.4-0.2-1.1-1-1.1
			c-0.7,0-1,0.6-1.1,1.1H107.4z"/>
		<path class="st7" d="M108.9,70.5c0-0.4,0-0.7,0-1h0.6l0,0.6h0c0.2-0.4,0.6-0.7,1.2-0.7c0.5,0,0.9,0.3,1.1,0.8h0
			c0.1-0.2,0.3-0.4,0.4-0.5c0.2-0.2,0.5-0.3,0.8-0.3c0.5,0,1.3,0.3,1.3,1.7v2.2h-0.7v-2.1c0-0.7-0.3-1.2-0.8-1.2
			c-0.4,0-0.7,0.3-0.8,0.6c0,0.1-0.1,0.2-0.1,0.3v2.4h-0.7V71c0-0.6-0.3-1-0.8-1c-0.4,0-0.7,0.3-0.9,0.7c0,0.1-0.1,0.2-0.1,0.3v2.3
			h-0.7V70.5z"/>
		<path class="st7" d="M115.5,70.7c0-0.5,0-0.9,0-1.2h0.6l0,0.7h0c0.3-0.5,0.7-0.7,1.3-0.7c0.9,0,1.6,0.8,1.6,1.9c0,1.4-0.8,2-1.7,2
			c-0.5,0-0.9-0.2-1.2-0.6h0v2.1h-0.7V70.7z M116.1,71.7c0,0.1,0,0.2,0,0.3c0.1,0.5,0.5,0.8,1,0.8c0.7,0,1.1-0.6,1.1-1.5
			c0-0.8-0.4-1.4-1.1-1.4c-0.5,0-0.9,0.3-1,0.8c0,0.1,0,0.2,0,0.3V71.7z"/>
		<path class="st7" d="M120.3,71.5c0,0.9,0.6,1.3,1.3,1.3c0.5,0,0.8-0.1,1-0.2l0.1,0.5c-0.2,0.1-0.7,0.2-1.3,0.2
			c-1.2,0-1.9-0.8-1.9-1.9s0.7-2,1.8-2c1.2,0,1.6,1.1,1.6,1.8c0,0.1,0,0.2,0,0.3H120.3z M122.3,71c0-0.4-0.2-1.1-1-1.1
			c-0.7,0-1,0.6-1.1,1.1H122.3z"/>
		<path class="st7" d="M123.8,70.7c0-0.4,0-0.8,0-1.2h0.6l0,0.8h0c0.2-0.5,0.6-0.8,1.1-0.8c0.1,0,0.1,0,0.2,0v0.7
			c-0.1,0-0.1,0-0.2,0c-0.5,0-0.8,0.4-0.9,0.9c0,0.1,0,0.2,0,0.3v2h-0.7V70.7z"/>
		<path class="st7" d="M130.7,72.4c0,0.3,0,0.7,0.1,0.9h-0.6l-0.1-0.5h0c-0.2,0.3-0.6,0.6-1.2,0.6c-0.8,0-1.2-0.5-1.2-1.1
			c0-0.9,0.8-1.4,2.3-1.4v-0.1c0-0.3-0.1-0.9-0.9-0.9c-0.4,0-0.7,0.1-1,0.3l-0.2-0.5c0.3-0.2,0.8-0.3,1.3-0.3c1.2,0,1.4,0.8,1.4,1.6
			V72.4z M130,71.3c-0.8,0-1.6,0.1-1.6,0.9c0,0.5,0.3,0.7,0.6,0.7c0.5,0,0.8-0.3,0.9-0.6c0-0.1,0-0.2,0-0.2V71.3z"/>
		<path class="st7" d="M134.5,73.2c-0.2,0.1-0.6,0.2-1.1,0.2c-1.1,0-1.9-0.8-1.9-1.9c0-1.2,0.8-2,2-2c0.4,0,0.8,0.1,1,0.2l-0.2,0.5
			c-0.2-0.1-0.4-0.2-0.8-0.2c-0.9,0-1.3,0.7-1.3,1.4c0,0.9,0.6,1.4,1.3,1.4c0.4,0,0.6-0.1,0.8-0.2L134.5,73.2z"/>
		<path class="st7" d="M137.9,73.2c-0.2,0.1-0.6,0.2-1.1,0.2c-1.1,0-1.9-0.8-1.9-1.9c0-1.2,0.8-2,2-2c0.4,0,0.8,0.1,1,0.2l-0.2,0.5
			c-0.2-0.1-0.4-0.2-0.8-0.2c-0.9,0-1.3,0.7-1.3,1.4c0,0.9,0.6,1.4,1.3,1.4c0.4,0,0.6-0.1,0.8-0.2L137.9,73.2z"/>
		<path class="st7" d="M141.9,72.2c0,0.4,0,0.7,0,1h-0.6l0-0.6h0c-0.2,0.3-0.6,0.7-1.3,0.7c-0.6,0-1.3-0.3-1.3-1.7v-2.2h0.7v2.1
			c0,0.7,0.2,1.2,0.8,1.2c0.5,0,0.8-0.3,0.9-0.6c0-0.1,0.1-0.2,0.1-0.4v-2.3h0.7V72.2z"/>
		<path class="st7" d="M143,70.5c0-0.4,0-0.7,0-1h0.6l0,0.6h0c0.2-0.4,0.6-0.7,1.2-0.7c0.5,0,0.9,0.3,1.1,0.8h0
			c0.1-0.2,0.3-0.4,0.4-0.5c0.2-0.2,0.5-0.3,0.8-0.3c0.5,0,1.3,0.3,1.3,1.7v2.2h-0.7v-2.1c0-0.7-0.3-1.2-0.8-1.2
			c-0.4,0-0.7,0.3-0.8,0.6c0,0.1-0.1,0.2-0.1,0.3v2.4h-0.7V71c0-0.6-0.3-1-0.8-1c-0.4,0-0.7,0.3-0.9,0.7c0,0.1-0.1,0.2-0.1,0.3v2.3
			H143V70.5z"/>
		<path class="st7" d="M149.5,72.6c0.2,0.1,0.6,0.3,0.9,0.3c0.5,0,0.7-0.2,0.7-0.6c0-0.3-0.2-0.5-0.7-0.7c-0.7-0.3-1-0.6-1-1.1
			c0-0.6,0.5-1.1,1.3-1.1c0.4,0,0.7,0.1,0.9,0.2l-0.2,0.5c-0.1-0.1-0.4-0.2-0.8-0.2c-0.4,0-0.6,0.2-0.6,0.5c0,0.3,0.2,0.5,0.7,0.7
			c0.6,0.2,1,0.6,1,1.1c0,0.7-0.5,1.1-1.4,1.1c-0.4,0-0.8-0.1-1.1-0.3L149.5,72.6z"/>
		<path class="st7" d="M155.3,72.4c0,0.3,0,0.7,0.1,0.9h-0.6l-0.1-0.5h0c-0.2,0.3-0.6,0.6-1.2,0.6c-0.8,0-1.2-0.5-1.2-1.1
			c0-0.9,0.8-1.4,2.3-1.4v-0.1c0-0.3-0.1-0.9-0.9-0.9c-0.4,0-0.7,0.1-1,0.3l-0.2-0.5c0.3-0.2,0.8-0.3,1.3-0.3c1.2,0,1.4,0.8,1.4,1.6
			V72.4z M154.6,71.3c-0.8,0-1.6,0.1-1.6,0.9c0,0.5,0.3,0.7,0.6,0.7c0.5,0,0.8-0.3,0.9-0.6c0-0.1,0-0.2,0-0.2V71.3z"/>
		<path class="st7" d="M156.4,70.5c0-0.4,0-0.7,0-1h0.6l0,0.6h0c0.2-0.4,0.6-0.7,1.3-0.7c0.5,0,1.3,0.3,1.3,1.6v2.3h-0.7v-2.2
			c0-0.6-0.2-1.1-0.9-1.1c-0.4,0-0.8,0.3-0.9,0.7c0,0.1,0,0.2,0,0.3v2.3h-0.7V70.5z"/>
		<path class="st7" d="M160.6,72.9c0-0.3,0.2-0.5,0.5-0.5s0.5,0.2,0.5,0.5c0,0.3-0.2,0.5-0.5,0.5C160.8,73.4,160.6,73.2,160.6,72.9z
			"/>
		<path class="st7" d="M162.2,72.9c0-0.3,0.2-0.5,0.5-0.5s0.5,0.2,0.5,0.5c0,0.3-0.2,0.5-0.5,0.5C162.4,73.4,162.2,73.2,162.2,72.9z
			"/>
	</g>
	<g class="st4">
		<path class="st7" d="M92,82.3h0.7V87H95v0.6H92V82.3z"/>
		<path class="st7" d="M96.4,82.3v5.2h-0.7v-5.2H96.4z"/>
		<path class="st7" d="M97.6,87.6v-5.2h0.7L100,85c0.4,0.6,0.7,1.2,0.9,1.7l0,0c-0.1-0.7-0.1-1.3-0.1-2.1v-2.2h0.6v5.2h-0.7
			l-1.7-2.7c-0.4-0.6-0.7-1.2-1-1.7l0,0c0,0.7,0,1.3,0,2.2v2.2H97.6z"/>
		<path class="st7" d="M102.7,82.3h0.7v2.5h0c0.1-0.2,0.3-0.4,0.4-0.6l1.6-2h0.8l-1.9,2.2l2,3h-0.8l-1.7-2.6l-0.5,0.6v2h-0.7V82.3z"
			/>
	</g>
</g>
</svg>
