<?xml version="1.0" encoding="utf-8"?>
<!-- Generator: Adobe Illustrator 24.0.0, SVG Export Plug-In . SVG Version: 6.00 Build 0)  -->
<svg version="1.1" id="Layer_1" xmlns="http://www.w3.org/2000/svg" xmlns:xlink="http://www.w3.org/1999/xlink" x="0px" y="0px"
	 viewBox="0 0 595.3 107.7" style="enable-background:new 0 0 595.3 107.7;" xml:space="preserve">
<style type="text/css">
	.st0{opacity:0.5;}
	.st1{fill:#F6FDCE;}
</style>
<g id="SPLINE" class="st0">
	<path class="st1" d="M0.8,80.6c16,0.1-8.8-36,5.4-24.2c8.1,6.9,11.6,16.8,34.4,30c-4.4,0.8-10.7-1.6-16.1-2.1
		C26.9,88.1-5.6,87.2,0.8,80.6"/>
</g>
<g id="SPLINE_1_" class="st0">
	<path class="st1" d="M0.8,33.5c0,0.3,0.1-0.7,0.2-2.1c2.6-0.2,14.3,4.4,4.1,10.9C2.3,58.8,0.8,37.9,0.8,33.5"/>
</g>
<g id="SPLINE_2_" class="st0">
	<path class="st1" d="M1.1,9.2C2.7,4,9.7,4.1,19.4,5.7C19.7,8.1-1.1,23.4,1.1,9.2"/>
</g>
<g id="SPLINE_3_" class="st0">
	<path class="st1" d="M5.2,51.7c1.3-0.3,1.6-4.4,3.7-4.2c13.2,11.8,30.2,21.2,46,29.7C54.4,88.6,5.7,53.9,5.2,51.7"/>
</g>
<g id="SPLINE_4_" class="st0">
	<path class="st1" d="M11.1,43.8c-0.8-9.8,28.6,13.1,22.1-7.6c-7.3-9-16.9-21.7-2.1-32.1c7.5,9.4,24,13.3,26.8,28.6
		C62.4,56.4,25.9,57.3,11.1,43.8"/>
</g>
<g id="SPLINE_5_" class="st0">
	<path class="st1" d="M45.4,69.2c7.8,0.4,14.8,8,25.4,0.5c0.3,1.2-0.5,3.3-2.1,5.4c9.6,4.8,19.9,0.3,30.4-5.1
		C144.8,87.5,75.7,89.4,45.4,69.2"/>
</g>
<g id="SPLINE_6_" class="st0">
	<path class="st1" d="M55.5,81.1c1,0.3,1.7-2.4,4.1-1.8c42.1,13.5,64.8,2.6,64,11.4C98.3,90.3,70.8,90.2,55.5,81.1"/>
</g>
<g id="SPLINE_7_" class="st0">
	<path class="st1" d="M70,51c4.9-33.8,75.9-5.1,40.4,18.4c-3.2-3.5,9.8-9.5,0.7-14.4C114.9,51.4,71.7,72.9,70,51"/>
</g>
<g id="SPLINE_8_" class="st0">
	<path class="st1" d="M84.2,0c59.8-3,59.4,69.2,31,71.2C154.3,36.2,67.7,33.3,84.2,0"/>
</g>
<g id="SPLINE_9_" class="st0">
	<path class="st1" d="M117.9,74c36.8-18.4-0.9-44.6,49.2-68C183.2,55.4,119,83.9,117.9,74z"/>
</g>
<g id="SPLINE_10_" class="st0">
	<path class="st1" d="M127,82.5c7.5-1.7,10.4-6.5,18.8-13.2C160.8,73.4,124.1,90.6,127,82.5z"/>
</g>
<g id="SPLINE_11_" class="st0">
	<path class="st1" d="M128.9,86.3c20.6-6.6,27.6-6.6,38-28.8c-0.2,2.9,21-10.5,18.3,14.2C156.6,78.6,138.5,95,128.9,86.3"/>
</g>
<g id="SPLINE_12_" class="st0">
	<path class="st1" d="M154.8,85.6c14.7-2.2,36-0.8,44,8.7C184.4,92,170.2,90.3,154.8,85.6"/>
</g>
<g id="SPLINE_13_" class="st0">
	<path class="st1" d="M173.9,50.4c8.2-7.8,18.8-36,1.5-39.7c12.5-7.7,25.9-4.4,41.8-3C197.5,15,192.9,56.8,173.9,50.4z"/>
</g>
<g id="SPLINE_14_" class="st0">
	<path class="st1" d="M183.1,54.8c14.7-10.5,29.4-30,47.5-33.6c4.2,5.9-44.1,34.6-41.4,36.4C186.7,60.3,188,60.7,183.1,54.8"/>
</g>
<g id="SPLINE_15_" class="st0">
	<path class="st1" d="M189.3,62.3c33.7-19.9,74.7,9,22.3,34.4C181.5,87.1,241,52,198.9,63.1C196.7,63.4,193.5,69.8,189.3,62.3"/>
</g>
<g id="SPLINE_16_" class="st0">
	<path class="st1" d="M224.5,34.8c6.7-8.3,80.5-36.4,63.5-2.3c-1.4,1.7-6.7,1.8-11.6,3.8c-6.9-6-28.2-18-29.8-0.7
		c-3.7-6.5-14.2-3.5-22.1,0.1C224.5,35.3,224.5,35.7,224.5,34.8"/>
</g>
<g id="SPLINE_17_" class="st0">
	<path class="st1" d="M233.5,18.4c60-23.9,97.5,0.4,41.6-4.6C248.4,13.6,237.8,29.1,233.5,18.4"/>
</g>
<g id="SPLINE_18_" class="st0">
	<path class="st1" d="M247.2,54.8c10.7-24.5,57.6,24.2,40.3-15.2C321.9,57.2,265,100.5,247.2,54.8"/>
</g>
<g id="SPLINE_19_" class="st0">
	<path class="st1" d="M262.4,89.1c20-17.7,59.5-18.7,29.9-52.6c15.5-3.6,27.9,43.3,9,56C298.7,96.1,244.4,110.8,262.4,89.1"/>
</g>
<g id="SPLINE_20_" class="st0">
	<path class="st1" d="M295.5,31.3c25.6-0.1,52.9,37.2,49.3,65.6c-23.6,11.8-32.4-25.5-33.2-44C310.2,42.7,302.1,39.2,295.5,31.3"/>
</g>
<g id="SPLINE_21_" class="st0">
	<path class="st1" d="M304.7,22.1c0-5.9,18.5,2.8,23.5,19.3C320,38.2,316.7,31.4,304.7,22.1"/>
</g>
<g id="SPLINE_22_" class="st0">
	<path class="st1" d="M307.2,14.6c-3-14.8,49.3,24.7,56.2,26.2c3.7,4.3-3.4,5.1-2.7,11c-1,7.7-8.8,0.9-13.1,3.6
		C344.5,60.7,340.3,33,307.2,14.6"/>
</g>
<g id="SPLINE_23_" class="st0">
	<path class="st1" d="M331.3,15.7c14.6,3.5,28.1-10.1,44.1-5.5C364.7,17.3,343.9,27.3,331.3,15.7"/>
</g>
<g id="SPLINE_24_" class="st0">
	<path class="st1" d="M351.7,98.1c20.2-1.9,10.5-27.9,0.6-34.7c12.7-9,27.9,37,42.9,39.4C380.5,99.4,368.2,106.1,351.7,98.1z"/>
</g>
<g id="SPLINE_25_" class="st0">
	<path class="st1" d="M361.3,59.2c4.8-9.9,17.5,14.2,48.9,30.1C410.4,103.4,362,62,361.3,59.2"/>
</g>
<g id="SPLINE_26_" class="st0">
	<path class="st1" d="M367.5,50.4c2.9-13,20.4,15.4,24.7-3.4c-17.2-16.6-18.9-64.5,20.4-17.2C424.3,54,391.9,72.4,367.5,50.4"/>
</g>
<g id="SPLINE_27_" class="st0">
	<path class="st1" d="M401.7,79.4c16,11.3,31.1-7.9,22.4,7.6c12.5,4.1,20,3.9,29.9-11.1C501,112.9,415.6,95.3,401.7,79.4z"/>
</g>
<g id="SPLINE_28_" class="st0">
	<path class="st1" d="M412.5,93.5c63.6,13.4,64.7,1.8,65.7,11.1C471,108.2,425.4,104.8,412.5,93.5z"/>
</g>
<g id="SPLINE_29_" class="st0">
	<path class="st1" d="M425,60c12.3-48.1,76.4-1.4,40,17.7c-2.1-4.7,4.9-3.9,6.5-17.3C458.7,60.6,429.1,80,425,60z"/>
</g>
<g id="SPLINE_30_" class="st0">
	<path class="st1" d="M438.7,9.6c-1.9-15.2,40.2,1.5,45.2,16.2c9.2,15.3,4.4,51.2-13.6,55.6C502.1,33.2,436.8,41.4,438.7,9.6"/>
</g>
<g id="SPLINE_31_" class="st0">
	<path class="st1" d="M472.5,84.1c7.2-5.3,15.2-9.9,17.4-20.7c4.9-17.9-1.7-33.9,13.5-47.3c32.3-27.5,17.5,33.2,5.9,47
		C504.1,72.1,470.9,95.2,472.5,84.1"/>
</g>
<g id="SPLINE_32_" class="st0">
	<path class="st1" d="M482.1,95.2c9.3-0.6,17.2-27.8,22.5-15.4C504,94.6,478.3,97.8,482.1,95.2z"/>
</g>
<g id="SPLINE_33_" class="st0">
	<path class="st1" d="M484.3,99.8c17.7-4.5,30.9-18.1,36.4-36.7c6.9,4.1,15.4-13.7,20.5,15.6C524.1,83.8,484.5,112.8,484.3,99.8"/>
</g>
<g id="SPLINE_34_" class="st0">
	<path class="st1" d="M508.7,98.5c13.6-3.7,31.7-3.2,43.5,8.7c-14,1.3-28-8-43.5-7.9C508.7,99,508.7,99.4,508.7,98.5"/>
</g>
<g id="SPLINE_35_" class="st0">
	<path class="st1" d="M529.1,55.8c5.3-11.5,20.8-33.7,1.9-42.9c1.5-4.3,7.6-5.2,12.4-3.2c1.4-2.2,10.1-8.8,12.4,2.9
		c4.3-1.4,9-3.1,15.3-2.5C553.9,18.7,545.7,56.4,529.1,55.8"/>
</g>
<g id="SPLINE_36_" class="st0">
	<path class="st1" d="M538.3,59.2c0.5-1.9,55.1-51.5,47.6-31.7C546.8,52.3,543.8,69.4,538.3,59.2"/>
</g>
<g id="SPLINE_37_" class="st0">
	<path class="st1" d="M543.9,67.7c16.5-15.7,56.8-11.3,44.7,21.4c-4.9,8.4-19.6,10.2-22.9,21.3c-12-9.1-12.8-18.5,1.9-39.4
		C570.1,53.5,546.7,77.4,543.9,67.7"/>
</g>
<g id="SPLINE_38_" class="st0">
	<path class="st1" d="M580.8,35.9c2.9-2.7,10.7-8.3,14.4-7.8c2.8,7.2-9.8,5.6-14.4,9.2C580.8,36.8,580.8,36.3,580.8,35.9z"/>
</g>
<g id="SPLINE_39_" class="st0">
	<path class="st1" d="M589.3,20.2c5.1-4,10.1,1.6,2.4,4.9C590.3,25.3,590.3,24.2,589.3,20.2z"/>
</g>
</svg>
